%YAML 1.1
%TAG !u! tag:unity3d.com,2011:
--- !u!1 &8803787546991085286
GameObject:
  m_ObjectHideFlags: 0
  m_CorrespondingSourceObject: {fileID: 0}
  m_PrefabInstance: {fileID: 0}
  m_PrefabAsset: {fileID: 0}
  serializedVersion: 6
  m_Component:
  - component: {fileID: 1002096535974867394}
  - component: {fileID: 7629868045579491644}
  m_Layer: 0
  m_Name: Antidote
  m_TagString: Untagged
  m_Icon: {fileID: 0}
  m_NavMeshLayer: 0
  m_StaticEditorFlags: 0
  m_IsActive: 1
--- !u!4 &1002096535974867394
Transform:
  m_ObjectHideFlags: 0
  m_CorrespondingSourceObject: {fileID: 0}
  m_PrefabInstance: {fileID: 0}
  m_PrefabAsset: {fileID: 0}
  m_GameObject: {fileID: 8803787546991085286}
  m_LocalRotation: {x: 0, y: 0, z: 0, w: 1}
  m_LocalPosition: {x: 0, y: 0, z: 0}
  m_LocalScale: {x: 1, y: 1, z: 1}
  m_Children: []
  m_Father: {fileID: 0}
  m_RootOrder: 0
  m_LocalEulerAnglesHint: {x: 0, y: 0, z: 0}
--- !u!114 &7629868045579491644
MonoBehaviour:
  m_ObjectHideFlags: 0
  m_CorrespondingSourceObject: {fileID: 0}
  m_PrefabInstance: {fileID: 0}
  m_PrefabAsset: {fileID: 0}
  m_GameObject: {fileID: 8803787546991085286}
  m_Enabled: 1
  m_EditorHideFlags: 0
  m_Script: {fileID: 11500000, guid: b8f17bad16d1e5746bc069192d111bf8, type: 3}
  m_Name: 
  m_EditorClassIdentifier: 
  itemID: item_Antidote
  itemName: Antidote
  types: 1
  itemIcon: {fileID: 21300000, guid: 2f0a42045850f6c4d81f5f3e3e4a7eb1, type: 3}
  maxStacks: 0
  stacks: 0
  actor: {fileID: 0}
  buffObject: {fileID: 1780350701110946248, guid: 906ee9e730add864391385565e99363c,
    type: 3}
