%YAML 1.1
%TAG !u! tag:unity3d.com,2011:
--- !u!29 &1
OcclusionCullingSettings:
  m_ObjectHideFlags: 0
  serializedVersion: 2
  m_OcclusionBakeSettings:
    smallestOccluder: 5
    smallestHole: 0.25
    backfaceThreshold: 100
  m_SceneGUID: 00000000000000000000000000000000
  m_OcclusionCullingData: {fileID: 0}
--- !u!104 &2
RenderSettings:
  m_ObjectHideFlags: 0
  serializedVersion: 9
  m_Fog: 0
  m_FogColor: {r: 0.5, g: 0.5, b: 0.5, a: 1}
  m_FogMode: 3
  m_FogDensity: 0.01
  m_LinearFogStart: 0
  m_LinearFogEnd: 300
  m_AmbientSkyColor: {r: 0.212, g: 0.227, b: 0.259, a: 1}
  m_AmbientEquatorColor: {r: 0.114, g: 0.125, b: 0.133, a: 1}
  m_AmbientGroundColor: {r: 0.047, g: 0.043, b: 0.035, a: 1}
  m_AmbientIntensity: 1
  m_AmbientMode: 3
  m_SubtractiveShadowColor: {r: 0.42, g: 0.478, b: 0.627, a: 1}
  m_SkyboxMaterial: {fileID: 0}
  m_HaloStrength: 0.5
  m_FlareStrength: 1
  m_FlareFadeSpeed: 3
  m_HaloTexture: {fileID: 0}
  m_SpotCookie: {fileID: 10001, guid: 0000000000000000e000000000000000, type: 0}
  m_DefaultReflectionMode: 0
  m_DefaultReflectionResolution: 128
  m_ReflectionBounces: 1
  m_ReflectionIntensity: 1
  m_CustomReflection: {fileID: 0}
  m_Sun: {fileID: 0}
  m_IndirectSpecularColor: {r: 0, g: 0, b: 0, a: 1}
  m_UseRadianceAmbientProbe: 0
--- !u!157 &3
LightmapSettings:
  m_ObjectHideFlags: 0
  serializedVersion: 11
  m_GIWorkflowMode: 1
  m_GISettings:
    serializedVersion: 2
    m_BounceScale: 1
    m_IndirectOutputScale: 1
    m_AlbedoBoost: 1
    m_EnvironmentLightingMode: 0
    m_EnableBakedLightmaps: 0
    m_EnableRealtimeLightmaps: 0
  m_LightmapEditorSettings:
    serializedVersion: 12
    m_Resolution: 2
    m_BakeResolution: 40
    m_AtlasSize: 1024
    m_AO: 0
    m_AOMaxDistance: 1
    m_CompAOExponent: 1
    m_CompAOExponentDirect: 0
    m_ExtractAmbientOcclusion: 0
    m_Padding: 2
    m_LightmapParameters: {fileID: 0}
    m_LightmapsBakeMode: 1
    m_TextureCompression: 1
    m_FinalGather: 0
    m_FinalGatherFiltering: 1
    m_FinalGatherRayCount: 256
    m_ReflectionCompression: 2
    m_MixedBakeMode: 2
    m_BakeBackend: 0
    m_PVRSampling: 1
    m_PVRDirectSampleCount: 32
    m_PVRSampleCount: 500
    m_PVRBounces: 2
    m_PVREnvironmentSampleCount: 500
    m_PVREnvironmentReferencePointCount: 2048
    m_PVRFilteringMode: 2
    m_PVRDenoiserTypeDirect: 0
    m_PVRDenoiserTypeIndirect: 0
    m_PVRDenoiserTypeAO: 0
    m_PVRFilterTypeDirect: 0
    m_PVRFilterTypeIndirect: 0
    m_PVRFilterTypeAO: 0
    m_PVREnvironmentMIS: 0
    m_PVRCulling: 1
    m_PVRFilteringGaussRadiusDirect: 1
    m_PVRFilteringGaussRadiusIndirect: 5
    m_PVRFilteringGaussRadiusAO: 2
    m_PVRFilteringAtrousPositionSigmaDirect: 0.5
    m_PVRFilteringAtrousPositionSigmaIndirect: 2
    m_PVRFilteringAtrousPositionSigmaAO: 1
    m_ExportTrainingData: 0
    m_TrainingDataDestination: TrainingData
  m_LightingDataAsset: {fileID: 0}
  m_UseShadowmask: 1
--- !u!196 &4
NavMeshSettings:
  serializedVersion: 2
  m_ObjectHideFlags: 0
  m_BuildSettings:
    serializedVersion: 2
    agentTypeID: 0
    agentRadius: 0.5
    agentHeight: 2
    agentSlope: 45
    agentClimb: 0.4
    ledgeDropHeight: 0
    maxJumpAcrossDistance: 0
    minRegionArea: 2
    manualCellSize: 0
    cellSize: 0.16666667
    manualTileSize: 0
    tileSize: 256
    accuratePlacement: 0
    debug:
      m_Flags: 0
  m_NavMeshData: {fileID: 0}
--- !u!1 &76511144
GameObject:
  m_ObjectHideFlags: 0
  m_CorrespondingSourceObject: {fileID: 0}
  m_PrefabInstance: {fileID: 0}
  m_PrefabAsset: {fileID: 0}
  serializedVersion: 6
  m_Component:
  - component: {fileID: 76511145}
  - component: {fileID: 76511146}
  m_Layer: 0
  m_Name: Item
  m_TagString: Untagged
  m_Icon: {fileID: 0}
  m_NavMeshLayer: 0
  m_StaticEditorFlags: 0
  m_IsActive: 1
--- !u!4 &76511145
Transform:
  m_ObjectHideFlags: 0
  m_CorrespondingSourceObject: {fileID: 0}
  m_PrefabInstance: {fileID: 0}
  m_PrefabAsset: {fileID: 0}
  m_GameObject: {fileID: 76511144}
  m_LocalRotation: {x: 0, y: 0, z: 0, w: 1}
  m_LocalPosition: {x: 0, y: 0, z: 0}
  m_LocalScale: {x: 1, y: 1, z: 1}
  m_Children: []
  m_Father: {fileID: 0}
  m_RootOrder: 2
  m_LocalEulerAnglesHint: {x: 0, y: 0, z: 0}
--- !u!114 &76511146
MonoBehaviour:
  m_ObjectHideFlags: 0
  m_CorrespondingSourceObject: {fileID: 0}
  m_PrefabInstance: {fileID: 0}
  m_PrefabAsset: {fileID: 0}
  m_GameObject: {fileID: 76511144}
  m_Enabled: 1
  m_EditorHideFlags: 0
  m_Script: {fileID: 11500000, guid: 73c767954e9a1434abb5ed8ab76dbafe, type: 3}
  m_Name: 
  m_EditorClassIdentifier: 
  mType: 0
  ItemName: HealthPotion00
--- !u!1001 &115457578
PrefabInstance:
  m_ObjectHideFlags: 0
  serializedVersion: 2
  m_Modification:
    m_TransformParent: {fileID: 1916489734}
    m_Modifications:
    - target: {fileID: 5441489197459088159, guid: 254cd73da79842f4a94d36d42a1da040,
        type: 3}
      propertyPath: m_Name
      value: Inventory Slot
      objectReference: {fileID: 0}
    - target: {fileID: 5441489197459088156, guid: 254cd73da79842f4a94d36d42a1da040,
        type: 3}
      propertyPath: m_LocalPosition.x
      value: 0
      objectReference: {fileID: 0}
    - target: {fileID: 5441489197459088156, guid: 254cd73da79842f4a94d36d42a1da040,
        type: 3}
      propertyPath: m_LocalPosition.y
      value: 0
      objectReference: {fileID: 0}
    - target: {fileID: 5441489197459088156, guid: 254cd73da79842f4a94d36d42a1da040,
        type: 3}
      propertyPath: m_LocalPosition.z
      value: 0
      objectReference: {fileID: 0}
    - target: {fileID: 5441489197459088156, guid: 254cd73da79842f4a94d36d42a1da040,
        type: 3}
      propertyPath: m_LocalRotation.x
      value: -0
      objectReference: {fileID: 0}
    - target: {fileID: 5441489197459088156, guid: 254cd73da79842f4a94d36d42a1da040,
        type: 3}
      propertyPath: m_LocalRotation.y
      value: -0
      objectReference: {fileID: 0}
    - target: {fileID: 5441489197459088156, guid: 254cd73da79842f4a94d36d42a1da040,
        type: 3}
      propertyPath: m_LocalRotation.z
      value: -0
      objectReference: {fileID: 0}
    - target: {fileID: 5441489197459088156, guid: 254cd73da79842f4a94d36d42a1da040,
        type: 3}
      propertyPath: m_LocalRotation.w
      value: 1
      objectReference: {fileID: 0}
    - target: {fileID: 5441489197459088156, guid: 254cd73da79842f4a94d36d42a1da040,
        type: 3}
      propertyPath: m_RootOrder
      value: 2
      objectReference: {fileID: 0}
    - target: {fileID: 5441489197459088156, guid: 254cd73da79842f4a94d36d42a1da040,
        type: 3}
      propertyPath: m_LocalEulerAnglesHint.x
      value: 0
      objectReference: {fileID: 0}
    - target: {fileID: 5441489197459088156, guid: 254cd73da79842f4a94d36d42a1da040,
        type: 3}
      propertyPath: m_LocalEulerAnglesHint.y
      value: 0
      objectReference: {fileID: 0}
    - target: {fileID: 5441489197459088156, guid: 254cd73da79842f4a94d36d42a1da040,
        type: 3}
      propertyPath: m_LocalEulerAnglesHint.z
      value: 0
      objectReference: {fileID: 0}
    - target: {fileID: 5441489197459088156, guid: 254cd73da79842f4a94d36d42a1da040,
        type: 3}
      propertyPath: m_AnchoredPosition.x
      value: 42.8
      objectReference: {fileID: 0}
    - target: {fileID: 5441489197459088156, guid: 254cd73da79842f4a94d36d42a1da040,
        type: 3}
      propertyPath: m_AnchoredPosition.y
      value: -3.5
      objectReference: {fileID: 0}
    - target: {fileID: 5441489197459088156, guid: 254cd73da79842f4a94d36d42a1da040,
        type: 3}
      propertyPath: m_SizeDelta.x
      value: 60
      objectReference: {fileID: 0}
    - target: {fileID: 5441489197459088156, guid: 254cd73da79842f4a94d36d42a1da040,
        type: 3}
      propertyPath: m_SizeDelta.y
      value: 60
      objectReference: {fileID: 0}
    - target: {fileID: 5441489197459088156, guid: 254cd73da79842f4a94d36d42a1da040,
        type: 3}
      propertyPath: m_AnchorMin.x
      value: 0
      objectReference: {fileID: 0}
    - target: {fileID: 5441489197459088156, guid: 254cd73da79842f4a94d36d42a1da040,
        type: 3}
      propertyPath: m_AnchorMin.y
      value: 1
      objectReference: {fileID: 0}
    - target: {fileID: 5441489197459088156, guid: 254cd73da79842f4a94d36d42a1da040,
        type: 3}
      propertyPath: m_AnchorMax.x
      value: 0
      objectReference: {fileID: 0}
    - target: {fileID: 5441489197459088156, guid: 254cd73da79842f4a94d36d42a1da040,
        type: 3}
      propertyPath: m_AnchorMax.y
      value: 1
      objectReference: {fileID: 0}
    - target: {fileID: 5441489197459088156, guid: 254cd73da79842f4a94d36d42a1da040,
        type: 3}
      propertyPath: m_Pivot.x
      value: 0.5
      objectReference: {fileID: 0}
    - target: {fileID: 5441489197459088156, guid: 254cd73da79842f4a94d36d42a1da040,
        type: 3}
      propertyPath: m_Pivot.y
      value: 0.5
      objectReference: {fileID: 0}
    m_RemovedComponents: []
  m_SourcePrefab: {fileID: 100100000, guid: 254cd73da79842f4a94d36d42a1da040, type: 3}
--- !u!1001 &149235235
PrefabInstance:
  m_ObjectHideFlags: 0
  serializedVersion: 2
  m_Modification:
    m_TransformParent: {fileID: 1547774244}
    m_Modifications:
    - target: {fileID: 2529273763783303850, guid: 48e4cf5c05ea60b478b4527624aacb6c,
        type: 3}
      propertyPath: m_Name
      value: Inventory (1)
      objectReference: {fileID: 0}
    - target: {fileID: 2529273763783303850, guid: 48e4cf5c05ea60b478b4527624aacb6c,
        type: 3}
      propertyPath: m_IsActive
      value: 1
      objectReference: {fileID: 0}
    - target: {fileID: 2529273763783303849, guid: 48e4cf5c05ea60b478b4527624aacb6c,
        type: 3}
      propertyPath: m_LocalPosition.x
      value: 0
      objectReference: {fileID: 0}
    - target: {fileID: 2529273763783303849, guid: 48e4cf5c05ea60b478b4527624aacb6c,
        type: 3}
      propertyPath: m_LocalPosition.y
      value: 0
      objectReference: {fileID: 0}
    - target: {fileID: 2529273763783303849, guid: 48e4cf5c05ea60b478b4527624aacb6c,
        type: 3}
      propertyPath: m_LocalPosition.z
      value: 0
      objectReference: {fileID: 0}
    - target: {fileID: 2529273763783303849, guid: 48e4cf5c05ea60b478b4527624aacb6c,
        type: 3}
      propertyPath: m_LocalRotation.x
      value: -0
      objectReference: {fileID: 0}
    - target: {fileID: 2529273763783303849, guid: 48e4cf5c05ea60b478b4527624aacb6c,
        type: 3}
      propertyPath: m_LocalRotation.y
      value: -0
      objectReference: {fileID: 0}
    - target: {fileID: 2529273763783303849, guid: 48e4cf5c05ea60b478b4527624aacb6c,
        type: 3}
      propertyPath: m_LocalRotation.z
      value: -0
      objectReference: {fileID: 0}
    - target: {fileID: 2529273763783303849, guid: 48e4cf5c05ea60b478b4527624aacb6c,
        type: 3}
      propertyPath: m_LocalRotation.w
      value: 1
      objectReference: {fileID: 0}
    - target: {fileID: 2529273763783303849, guid: 48e4cf5c05ea60b478b4527624aacb6c,
        type: 3}
      propertyPath: m_RootOrder
      value: 0
      objectReference: {fileID: 0}
    - target: {fileID: 2529273763783303849, guid: 48e4cf5c05ea60b478b4527624aacb6c,
        type: 3}
      propertyPath: m_LocalEulerAnglesHint.x
      value: 0
      objectReference: {fileID: 0}
    - target: {fileID: 2529273763783303849, guid: 48e4cf5c05ea60b478b4527624aacb6c,
        type: 3}
      propertyPath: m_LocalEulerAnglesHint.y
      value: 0
      objectReference: {fileID: 0}
    - target: {fileID: 2529273763783303849, guid: 48e4cf5c05ea60b478b4527624aacb6c,
        type: 3}
      propertyPath: m_LocalEulerAnglesHint.z
      value: 0
      objectReference: {fileID: 0}
    - target: {fileID: 2529273763783303849, guid: 48e4cf5c05ea60b478b4527624aacb6c,
        type: 3}
      propertyPath: m_AnchoredPosition.x
      value: 0
      objectReference: {fileID: 0}
    - target: {fileID: 2529273763783303849, guid: 48e4cf5c05ea60b478b4527624aacb6c,
        type: 3}
      propertyPath: m_AnchoredPosition.y
      value: 207
      objectReference: {fileID: 0}
    - target: {fileID: 2529273763783303849, guid: 48e4cf5c05ea60b478b4527624aacb6c,
        type: 3}
      propertyPath: m_SizeDelta.x
      value: 659.2
      objectReference: {fileID: 0}
    - target: {fileID: 2529273763783303849, guid: 48e4cf5c05ea60b478b4527624aacb6c,
        type: 3}
      propertyPath: m_SizeDelta.y
      value: 112.399994
      objectReference: {fileID: 0}
    - target: {fileID: 2529273763783303849, guid: 48e4cf5c05ea60b478b4527624aacb6c,
        type: 3}
      propertyPath: m_AnchorMin.x
      value: 0.5
      objectReference: {fileID: 0}
    - target: {fileID: 2529273763783303849, guid: 48e4cf5c05ea60b478b4527624aacb6c,
        type: 3}
      propertyPath: m_AnchorMin.y
      value: 0
      objectReference: {fileID: 0}
    - target: {fileID: 2529273763783303849, guid: 48e4cf5c05ea60b478b4527624aacb6c,
        type: 3}
      propertyPath: m_AnchorMax.x
      value: 0.5
      objectReference: {fileID: 0}
    - target: {fileID: 2529273763783303849, guid: 48e4cf5c05ea60b478b4527624aacb6c,
        type: 3}
      propertyPath: m_AnchorMax.y
      value: 0
      objectReference: {fileID: 0}
    - target: {fileID: 2529273763783303849, guid: 48e4cf5c05ea60b478b4527624aacb6c,
        type: 3}
      propertyPath: m_Pivot.x
      value: 0.5
      objectReference: {fileID: 0}
    - target: {fileID: 2529273763783303849, guid: 48e4cf5c05ea60b478b4527624aacb6c,
        type: 3}
      propertyPath: m_Pivot.y
      value: 0.5
      objectReference: {fileID: 0}
    m_RemovedComponents: []
  m_SourcePrefab: {fileID: 100100000, guid: 48e4cf5c05ea60b478b4527624aacb6c, type: 3}
--- !u!1001 &205555955
PrefabInstance:
  m_ObjectHideFlags: 0
  serializedVersion: 2
  m_Modification:
    m_TransformParent: {fileID: 1916489734}
    m_Modifications:
    - target: {fileID: 5441489197459088159, guid: 254cd73da79842f4a94d36d42a1da040,
        type: 3}
      propertyPath: m_Name
      value: Inventory Slot (14)
      objectReference: {fileID: 0}
    - target: {fileID: 5441489197459088156, guid: 254cd73da79842f4a94d36d42a1da040,
        type: 3}
      propertyPath: m_LocalPosition.x
      value: 0
      objectReference: {fileID: 0}
    - target: {fileID: 5441489197459088156, guid: 254cd73da79842f4a94d36d42a1da040,
        type: 3}
      propertyPath: m_LocalPosition.y
      value: 0
      objectReference: {fileID: 0}
    - target: {fileID: 5441489197459088156, guid: 254cd73da79842f4a94d36d42a1da040,
        type: 3}
      propertyPath: m_LocalPosition.z
      value: 0
      objectReference: {fileID: 0}
    - target: {fileID: 5441489197459088156, guid: 254cd73da79842f4a94d36d42a1da040,
        type: 3}
      propertyPath: m_LocalRotation.x
      value: -0
      objectReference: {fileID: 0}
    - target: {fileID: 5441489197459088156, guid: 254cd73da79842f4a94d36d42a1da040,
        type: 3}
      propertyPath: m_LocalRotation.y
      value: -0
      objectReference: {fileID: 0}
    - target: {fileID: 5441489197459088156, guid: 254cd73da79842f4a94d36d42a1da040,
        type: 3}
      propertyPath: m_LocalRotation.z
      value: -0
      objectReference: {fileID: 0}
    - target: {fileID: 5441489197459088156, guid: 254cd73da79842f4a94d36d42a1da040,
        type: 3}
      propertyPath: m_LocalRotation.w
      value: 1
      objectReference: {fileID: 0}
    - target: {fileID: 5441489197459088156, guid: 254cd73da79842f4a94d36d42a1da040,
        type: 3}
      propertyPath: m_RootOrder
      value: 16
      objectReference: {fileID: 0}
    - target: {fileID: 5441489197459088156, guid: 254cd73da79842f4a94d36d42a1da040,
        type: 3}
      propertyPath: m_LocalEulerAnglesHint.x
      value: 0
      objectReference: {fileID: 0}
    - target: {fileID: 5441489197459088156, guid: 254cd73da79842f4a94d36d42a1da040,
        type: 3}
      propertyPath: m_LocalEulerAnglesHint.y
      value: 0
      objectReference: {fileID: 0}
    - target: {fileID: 5441489197459088156, guid: 254cd73da79842f4a94d36d42a1da040,
        type: 3}
      propertyPath: m_LocalEulerAnglesHint.z
      value: 0
      objectReference: {fileID: 0}
    - target: {fileID: 5441489197459088156, guid: 254cd73da79842f4a94d36d42a1da040,
        type: 3}
      propertyPath: m_AnchoredPosition.x
      value: 587.6
      objectReference: {fileID: 0}
    - target: {fileID: 5441489197459088156, guid: 254cd73da79842f4a94d36d42a1da040,
        type: 3}
      propertyPath: m_AnchoredPosition.y
      value: -71.600006
      objectReference: {fileID: 0}
    - target: {fileID: 5441489197459088156, guid: 254cd73da79842f4a94d36d42a1da040,
        type: 3}
      propertyPath: m_SizeDelta.x
      value: 60
      objectReference: {fileID: 0}
    - target: {fileID: 5441489197459088156, guid: 254cd73da79842f4a94d36d42a1da040,
        type: 3}
      propertyPath: m_SizeDelta.y
      value: 60
      objectReference: {fileID: 0}
    - target: {fileID: 5441489197459088156, guid: 254cd73da79842f4a94d36d42a1da040,
        type: 3}
      propertyPath: m_AnchorMin.x
      value: 0
      objectReference: {fileID: 0}
    - target: {fileID: 5441489197459088156, guid: 254cd73da79842f4a94d36d42a1da040,
        type: 3}
      propertyPath: m_AnchorMin.y
      value: 1
      objectReference: {fileID: 0}
    - target: {fileID: 5441489197459088156, guid: 254cd73da79842f4a94d36d42a1da040,
        type: 3}
      propertyPath: m_AnchorMax.x
      value: 0
      objectReference: {fileID: 0}
    - target: {fileID: 5441489197459088156, guid: 254cd73da79842f4a94d36d42a1da040,
        type: 3}
      propertyPath: m_AnchorMax.y
      value: 1
      objectReference: {fileID: 0}
    - target: {fileID: 5441489197459088156, guid: 254cd73da79842f4a94d36d42a1da040,
        type: 3}
      propertyPath: m_Pivot.x
      value: 0.5
      objectReference: {fileID: 0}
    - target: {fileID: 5441489197459088156, guid: 254cd73da79842f4a94d36d42a1da040,
        type: 3}
      propertyPath: m_Pivot.y
      value: 0.5
      objectReference: {fileID: 0}
    m_RemovedComponents: []
  m_SourcePrefab: {fileID: 100100000, guid: 254cd73da79842f4a94d36d42a1da040, type: 3}
--- !u!1001 &340283134
PrefabInstance:
  m_ObjectHideFlags: 0
  serializedVersion: 2
  m_Modification:
    m_TransformParent: {fileID: 1916489734}
    m_Modifications:
    - target: {fileID: 5441489197459088159, guid: 254cd73da79842f4a94d36d42a1da040,
        type: 3}
      propertyPath: m_Name
      value: Inventory Slot (7)
      objectReference: {fileID: 0}
    - target: {fileID: 5441489197459088156, guid: 254cd73da79842f4a94d36d42a1da040,
        type: 3}
      propertyPath: m_LocalPosition.x
      value: 0
      objectReference: {fileID: 0}
    - target: {fileID: 5441489197459088156, guid: 254cd73da79842f4a94d36d42a1da040,
        type: 3}
      propertyPath: m_LocalPosition.y
      value: 0
      objectReference: {fileID: 0}
    - target: {fileID: 5441489197459088156, guid: 254cd73da79842f4a94d36d42a1da040,
        type: 3}
      propertyPath: m_LocalPosition.z
      value: 0
      objectReference: {fileID: 0}
    - target: {fileID: 5441489197459088156, guid: 254cd73da79842f4a94d36d42a1da040,
        type: 3}
      propertyPath: m_LocalRotation.x
      value: -0
      objectReference: {fileID: 0}
    - target: {fileID: 5441489197459088156, guid: 254cd73da79842f4a94d36d42a1da040,
        type: 3}
      propertyPath: m_LocalRotation.y
      value: -0
      objectReference: {fileID: 0}
    - target: {fileID: 5441489197459088156, guid: 254cd73da79842f4a94d36d42a1da040,
        type: 3}
      propertyPath: m_LocalRotation.z
      value: -0
      objectReference: {fileID: 0}
    - target: {fileID: 5441489197459088156, guid: 254cd73da79842f4a94d36d42a1da040,
        type: 3}
      propertyPath: m_LocalRotation.w
      value: 1
      objectReference: {fileID: 0}
    - target: {fileID: 5441489197459088156, guid: 254cd73da79842f4a94d36d42a1da040,
        type: 3}
      propertyPath: m_RootOrder
      value: 9
      objectReference: {fileID: 0}
    - target: {fileID: 5441489197459088156, guid: 254cd73da79842f4a94d36d42a1da040,
        type: 3}
      propertyPath: m_LocalEulerAnglesHint.x
      value: 0
      objectReference: {fileID: 0}
    - target: {fileID: 5441489197459088156, guid: 254cd73da79842f4a94d36d42a1da040,
        type: 3}
      propertyPath: m_LocalEulerAnglesHint.y
      value: 0
      objectReference: {fileID: 0}
    - target: {fileID: 5441489197459088156, guid: 254cd73da79842f4a94d36d42a1da040,
        type: 3}
      propertyPath: m_LocalEulerAnglesHint.z
      value: 0
      objectReference: {fileID: 0}
    - target: {fileID: 5441489197459088156, guid: 254cd73da79842f4a94d36d42a1da040,
        type: 3}
      propertyPath: m_AnchoredPosition.x
      value: 506.6
      objectReference: {fileID: 0}
    - target: {fileID: 5441489197459088156, guid: 254cd73da79842f4a94d36d42a1da040,
        type: 3}
      propertyPath: m_AnchoredPosition.y
      value: -3.5
      objectReference: {fileID: 0}
    - target: {fileID: 5441489197459088156, guid: 254cd73da79842f4a94d36d42a1da040,
        type: 3}
      propertyPath: m_SizeDelta.x
      value: 60
      objectReference: {fileID: 0}
    - target: {fileID: 5441489197459088156, guid: 254cd73da79842f4a94d36d42a1da040,
        type: 3}
      propertyPath: m_SizeDelta.y
      value: 60
      objectReference: {fileID: 0}
    - target: {fileID: 5441489197459088156, guid: 254cd73da79842f4a94d36d42a1da040,
        type: 3}
      propertyPath: m_AnchorMin.x
      value: 0
      objectReference: {fileID: 0}
    - target: {fileID: 5441489197459088156, guid: 254cd73da79842f4a94d36d42a1da040,
        type: 3}
      propertyPath: m_AnchorMin.y
      value: 1
      objectReference: {fileID: 0}
    - target: {fileID: 5441489197459088156, guid: 254cd73da79842f4a94d36d42a1da040,
        type: 3}
      propertyPath: m_AnchorMax.x
      value: 0
      objectReference: {fileID: 0}
    - target: {fileID: 5441489197459088156, guid: 254cd73da79842f4a94d36d42a1da040,
        type: 3}
      propertyPath: m_AnchorMax.y
      value: 1
      objectReference: {fileID: 0}
    - target: {fileID: 5441489197459088156, guid: 254cd73da79842f4a94d36d42a1da040,
        type: 3}
      propertyPath: m_Pivot.x
      value: 0.5
      objectReference: {fileID: 0}
    - target: {fileID: 5441489197459088156, guid: 254cd73da79842f4a94d36d42a1da040,
        type: 3}
      propertyPath: m_Pivot.y
      value: 0.5
      objectReference: {fileID: 0}
    m_RemovedComponents: []
  m_SourcePrefab: {fileID: 100100000, guid: 254cd73da79842f4a94d36d42a1da040, type: 3}
--- !u!1 &519420028
GameObject:
  m_ObjectHideFlags: 0
  m_CorrespondingSourceObject: {fileID: 0}
  m_PrefabInstance: {fileID: 0}
  m_PrefabAsset: {fileID: 0}
  serializedVersion: 6
  m_Component:
  - component: {fileID: 519420032}
  - component: {fileID: 519420031}
  - component: {fileID: 519420029}
  m_Layer: 0
  m_Name: Main Camera
  m_TagString: MainCamera
  m_Icon: {fileID: 0}
  m_NavMeshLayer: 0
  m_StaticEditorFlags: 0
  m_IsActive: 1
--- !u!81 &519420029
AudioListener:
  m_ObjectHideFlags: 0
  m_CorrespondingSourceObject: {fileID: 0}
  m_PrefabInstance: {fileID: 0}
  m_PrefabAsset: {fileID: 0}
  m_GameObject: {fileID: 519420028}
  m_Enabled: 1
--- !u!20 &519420031
Camera:
  m_ObjectHideFlags: 0
  m_CorrespondingSourceObject: {fileID: 0}
  m_PrefabInstance: {fileID: 0}
  m_PrefabAsset: {fileID: 0}
  m_GameObject: {fileID: 519420028}
  m_Enabled: 1
  serializedVersion: 2
  m_ClearFlags: 2
  m_BackGroundColor: {r: 0.19215687, g: 0.3019608, b: 0.4745098, a: 0}
  m_projectionMatrixMode: 1
  m_GateFitMode: 2
  m_FOVAxisMode: 0
  m_SensorSize: {x: 36, y: 24}
  m_LensShift: {x: 0, y: 0}
  m_FocalLength: 50
  m_NormalizedViewPortRect:
    serializedVersion: 2
    x: 0
    y: 0
    width: 1
    height: 1
  near clip plane: 0.3
  far clip plane: 1000
  field of view: 60
  orthographic: 1
  orthographic size: 5
  m_Depth: -1
  m_CullingMask:
    serializedVersion: 2
    m_Bits: 4294967295
  m_RenderingPath: -1
  m_TargetTexture: {fileID: 0}
  m_TargetDisplay: 0
  m_TargetEye: 0
  m_HDR: 1
  m_AllowMSAA: 0
  m_AllowDynamicResolution: 0
  m_ForceIntoRT: 0
  m_OcclusionCulling: 0
  m_StereoConvergence: 10
  m_StereoSeparation: 0.022
--- !u!4 &519420032
Transform:
  m_ObjectHideFlags: 0
  m_CorrespondingSourceObject: {fileID: 0}
  m_PrefabInstance: {fileID: 0}
  m_PrefabAsset: {fileID: 0}
  m_GameObject: {fileID: 519420028}
  m_LocalRotation: {x: 0, y: 0, z: 0, w: 1}
  m_LocalPosition: {x: 0, y: 0, z: -10}
  m_LocalScale: {x: 1, y: 1, z: 1}
  m_Children: []
  m_Father: {fileID: 0}
  m_RootOrder: 0
  m_LocalEulerAnglesHint: {x: 0, y: 0, z: 0}
--- !u!1001 &685152265
PrefabInstance:
  m_ObjectHideFlags: 0
  serializedVersion: 2
  m_Modification:
    m_TransformParent: {fileID: 1916489734}
    m_Modifications:
    - target: {fileID: 5441489197459088159, guid: 254cd73da79842f4a94d36d42a1da040,
        type: 3}
      propertyPath: m_Name
      value: Inventory Slot (4)
      objectReference: {fileID: 0}
    - target: {fileID: 5441489197459088156, guid: 254cd73da79842f4a94d36d42a1da040,
        type: 3}
      propertyPath: m_LocalPosition.x
      value: 0
      objectReference: {fileID: 0}
    - target: {fileID: 5441489197459088156, guid: 254cd73da79842f4a94d36d42a1da040,
        type: 3}
      propertyPath: m_LocalPosition.y
      value: 0
      objectReference: {fileID: 0}
    - target: {fileID: 5441489197459088156, guid: 254cd73da79842f4a94d36d42a1da040,
        type: 3}
      propertyPath: m_LocalPosition.z
      value: 0
      objectReference: {fileID: 0}
    - target: {fileID: 5441489197459088156, guid: 254cd73da79842f4a94d36d42a1da040,
        type: 3}
      propertyPath: m_LocalRotation.x
      value: -0
      objectReference: {fileID: 0}
    - target: {fileID: 5441489197459088156, guid: 254cd73da79842f4a94d36d42a1da040,
        type: 3}
      propertyPath: m_LocalRotation.y
      value: -0
      objectReference: {fileID: 0}
    - target: {fileID: 5441489197459088156, guid: 254cd73da79842f4a94d36d42a1da040,
        type: 3}
      propertyPath: m_LocalRotation.z
      value: -0
      objectReference: {fileID: 0}
    - target: {fileID: 5441489197459088156, guid: 254cd73da79842f4a94d36d42a1da040,
        type: 3}
      propertyPath: m_LocalRotation.w
      value: 1
      objectReference: {fileID: 0}
    - target: {fileID: 5441489197459088156, guid: 254cd73da79842f4a94d36d42a1da040,
        type: 3}
      propertyPath: m_RootOrder
      value: 6
      objectReference: {fileID: 0}
    - target: {fileID: 5441489197459088156, guid: 254cd73da79842f4a94d36d42a1da040,
        type: 3}
      propertyPath: m_LocalEulerAnglesHint.x
      value: 0
      objectReference: {fileID: 0}
    - target: {fileID: 5441489197459088156, guid: 254cd73da79842f4a94d36d42a1da040,
        type: 3}
      propertyPath: m_LocalEulerAnglesHint.y
      value: 0
      objectReference: {fileID: 0}
    - target: {fileID: 5441489197459088156, guid: 254cd73da79842f4a94d36d42a1da040,
        type: 3}
      propertyPath: m_LocalEulerAnglesHint.z
      value: 0
      objectReference: {fileID: 0}
    - target: {fileID: 5441489197459088156, guid: 254cd73da79842f4a94d36d42a1da040,
        type: 3}
      propertyPath: m_AnchoredPosition.x
      value: 427.6
      objectReference: {fileID: 0}
    - target: {fileID: 5441489197459088156, guid: 254cd73da79842f4a94d36d42a1da040,
        type: 3}
      propertyPath: m_AnchoredPosition.y
      value: -3.5
      objectReference: {fileID: 0}
    - target: {fileID: 5441489197459088156, guid: 254cd73da79842f4a94d36d42a1da040,
        type: 3}
      propertyPath: m_SizeDelta.x
      value: 60
      objectReference: {fileID: 0}
    - target: {fileID: 5441489197459088156, guid: 254cd73da79842f4a94d36d42a1da040,
        type: 3}
      propertyPath: m_SizeDelta.y
      value: 60
      objectReference: {fileID: 0}
    - target: {fileID: 5441489197459088156, guid: 254cd73da79842f4a94d36d42a1da040,
        type: 3}
      propertyPath: m_AnchorMin.x
      value: 0
      objectReference: {fileID: 0}
    - target: {fileID: 5441489197459088156, guid: 254cd73da79842f4a94d36d42a1da040,
        type: 3}
      propertyPath: m_AnchorMin.y
      value: 1
      objectReference: {fileID: 0}
    - target: {fileID: 5441489197459088156, guid: 254cd73da79842f4a94d36d42a1da040,
        type: 3}
      propertyPath: m_AnchorMax.x
      value: 0
      objectReference: {fileID: 0}
    - target: {fileID: 5441489197459088156, guid: 254cd73da79842f4a94d36d42a1da040,
        type: 3}
      propertyPath: m_AnchorMax.y
      value: 1
      objectReference: {fileID: 0}
    - target: {fileID: 5441489197459088156, guid: 254cd73da79842f4a94d36d42a1da040,
        type: 3}
      propertyPath: m_Pivot.x
      value: 0.5
      objectReference: {fileID: 0}
    - target: {fileID: 5441489197459088156, guid: 254cd73da79842f4a94d36d42a1da040,
        type: 3}
      propertyPath: m_Pivot.y
      value: 0.5
      objectReference: {fileID: 0}
    m_RemovedComponents: []
  m_SourcePrefab: {fileID: 100100000, guid: 254cd73da79842f4a94d36d42a1da040, type: 3}
--- !u!1 &722900985
GameObject:
  m_ObjectHideFlags: 0
  m_CorrespondingSourceObject: {fileID: 0}
  m_PrefabInstance: {fileID: 0}
  m_PrefabAsset: {fileID: 0}
  serializedVersion: 6
  m_Component:
  - component: {fileID: 722900988}
  - component: {fileID: 722900987}
  - component: {fileID: 722900986}
  m_Layer: 0
  m_Name: EventSystem
  m_TagString: Untagged
  m_Icon: {fileID: 0}
  m_NavMeshLayer: 0
  m_StaticEditorFlags: 0
  m_IsActive: 1
--- !u!114 &722900986
MonoBehaviour:
  m_ObjectHideFlags: 0
  m_CorrespondingSourceObject: {fileID: 0}
  m_PrefabInstance: {fileID: 0}
  m_PrefabAsset: {fileID: 0}
  m_GameObject: {fileID: 722900985}
  m_Enabled: 1
  m_EditorHideFlags: 0
  m_Script: {fileID: 11500000, guid: 4f231c4fb786f3946a6b90b886c48677, type: 3}
  m_Name: 
  m_EditorClassIdentifier: 
  m_HorizontalAxis: Horizontal
  m_VerticalAxis: Vertical
  m_SubmitButton: Submit
  m_CancelButton: Cancel
  m_InputActionsPerSecond: 10
  m_RepeatDelay: 0.5
  m_ForceModuleActive: 0
--- !u!114 &722900987
MonoBehaviour:
  m_ObjectHideFlags: 0
  m_CorrespondingSourceObject: {fileID: 0}
  m_PrefabInstance: {fileID: 0}
  m_PrefabAsset: {fileID: 0}
  m_GameObject: {fileID: 722900985}
  m_Enabled: 1
  m_EditorHideFlags: 0
  m_Script: {fileID: 11500000, guid: 76c392e42b5098c458856cdf6ecaaaa1, type: 3}
  m_Name: 
  m_EditorClassIdentifier: 
  m_FirstSelected: {fileID: 0}
  m_sendNavigationEvents: 1
  m_DragThreshold: 10
--- !u!4 &722900988
Transform:
  m_ObjectHideFlags: 0
  m_CorrespondingSourceObject: {fileID: 0}
  m_PrefabInstance: {fileID: 0}
  m_PrefabAsset: {fileID: 0}
  m_GameObject: {fileID: 722900985}
  m_LocalRotation: {x: 0, y: 0, z: 0, w: 1}
  m_LocalPosition: {x: 0, y: 0, z: 0}
  m_LocalScale: {x: 1, y: 1, z: 1}
  m_Children: []
  m_Father: {fileID: 0}
  m_RootOrder: 4
  m_LocalEulerAnglesHint: {x: 0, y: 0, z: 0}
--- !u!1001 &843478220
PrefabInstance:
  m_ObjectHideFlags: 0
  serializedVersion: 2
  m_Modification:
    m_TransformParent: {fileID: 1916489734}
    m_Modifications:
    - target: {fileID: 5441489197459088159, guid: 254cd73da79842f4a94d36d42a1da040,
        type: 3}
      propertyPath: m_Name
      value: Inventory Slot (3)
      objectReference: {fileID: 0}
    - target: {fileID: 5441489197459088156, guid: 254cd73da79842f4a94d36d42a1da040,
        type: 3}
      propertyPath: m_LocalPosition.x
      value: 0
      objectReference: {fileID: 0}
    - target: {fileID: 5441489197459088156, guid: 254cd73da79842f4a94d36d42a1da040,
        type: 3}
      propertyPath: m_LocalPosition.y
      value: 0
      objectReference: {fileID: 0}
    - target: {fileID: 5441489197459088156, guid: 254cd73da79842f4a94d36d42a1da040,
        type: 3}
      propertyPath: m_LocalPosition.z
      value: 0
      objectReference: {fileID: 0}
    - target: {fileID: 5441489197459088156, guid: 254cd73da79842f4a94d36d42a1da040,
        type: 3}
      propertyPath: m_LocalRotation.x
      value: -0
      objectReference: {fileID: 0}
    - target: {fileID: 5441489197459088156, guid: 254cd73da79842f4a94d36d42a1da040,
        type: 3}
      propertyPath: m_LocalRotation.y
      value: -0
      objectReference: {fileID: 0}
    - target: {fileID: 5441489197459088156, guid: 254cd73da79842f4a94d36d42a1da040,
        type: 3}
      propertyPath: m_LocalRotation.z
      value: -0
      objectReference: {fileID: 0}
    - target: {fileID: 5441489197459088156, guid: 254cd73da79842f4a94d36d42a1da040,
        type: 3}
      propertyPath: m_LocalRotation.w
      value: 1
      objectReference: {fileID: 0}
    - target: {fileID: 5441489197459088156, guid: 254cd73da79842f4a94d36d42a1da040,
        type: 3}
      propertyPath: m_RootOrder
      value: 5
      objectReference: {fileID: 0}
    - target: {fileID: 5441489197459088156, guid: 254cd73da79842f4a94d36d42a1da040,
        type: 3}
      propertyPath: m_LocalEulerAnglesHint.x
      value: 0
      objectReference: {fileID: 0}
    - target: {fileID: 5441489197459088156, guid: 254cd73da79842f4a94d36d42a1da040,
        type: 3}
      propertyPath: m_LocalEulerAnglesHint.y
      value: 0
      objectReference: {fileID: 0}
    - target: {fileID: 5441489197459088156, guid: 254cd73da79842f4a94d36d42a1da040,
        type: 3}
      propertyPath: m_LocalEulerAnglesHint.z
      value: 0
      objectReference: {fileID: 0}
    - target: {fileID: 5441489197459088156, guid: 254cd73da79842f4a94d36d42a1da040,
        type: 3}
      propertyPath: m_AnchoredPosition.x
      value: 272
      objectReference: {fileID: 0}
    - target: {fileID: 5441489197459088156, guid: 254cd73da79842f4a94d36d42a1da040,
        type: 3}
      propertyPath: m_AnchoredPosition.y
      value: -3.5
      objectReference: {fileID: 0}
    - target: {fileID: 5441489197459088156, guid: 254cd73da79842f4a94d36d42a1da040,
        type: 3}
      propertyPath: m_SizeDelta.x
      value: 60
      objectReference: {fileID: 0}
    - target: {fileID: 5441489197459088156, guid: 254cd73da79842f4a94d36d42a1da040,
        type: 3}
      propertyPath: m_SizeDelta.y
      value: 60
      objectReference: {fileID: 0}
    - target: {fileID: 5441489197459088156, guid: 254cd73da79842f4a94d36d42a1da040,
        type: 3}
      propertyPath: m_AnchorMin.x
      value: 0
      objectReference: {fileID: 0}
    - target: {fileID: 5441489197459088156, guid: 254cd73da79842f4a94d36d42a1da040,
        type: 3}
      propertyPath: m_AnchorMin.y
      value: 1
      objectReference: {fileID: 0}
    - target: {fileID: 5441489197459088156, guid: 254cd73da79842f4a94d36d42a1da040,
        type: 3}
      propertyPath: m_AnchorMax.x
      value: 0
      objectReference: {fileID: 0}
    - target: {fileID: 5441489197459088156, guid: 254cd73da79842f4a94d36d42a1da040,
        type: 3}
      propertyPath: m_AnchorMax.y
      value: 1
      objectReference: {fileID: 0}
    - target: {fileID: 5441489197459088156, guid: 254cd73da79842f4a94d36d42a1da040,
        type: 3}
      propertyPath: m_Pivot.x
      value: 0.5
      objectReference: {fileID: 0}
    - target: {fileID: 5441489197459088156, guid: 254cd73da79842f4a94d36d42a1da040,
        type: 3}
      propertyPath: m_Pivot.y
      value: 0.5
      objectReference: {fileID: 0}
    m_RemovedComponents: []
  m_SourcePrefab: {fileID: 100100000, guid: 254cd73da79842f4a94d36d42a1da040, type: 3}
--- !u!1001 &883490654
PrefabInstance:
  m_ObjectHideFlags: 0
  serializedVersion: 2
  m_Modification:
    m_TransformParent: {fileID: 1916489734}
    m_Modifications:
    - target: {fileID: 5441489197459088159, guid: 254cd73da79842f4a94d36d42a1da040,
        type: 3}
      propertyPath: m_Name
      value: Inventory Slot (10)
      objectReference: {fileID: 0}
    - target: {fileID: 5441489197459088156, guid: 254cd73da79842f4a94d36d42a1da040,
        type: 3}
      propertyPath: m_LocalPosition.x
      value: 0
      objectReference: {fileID: 0}
    - target: {fileID: 5441489197459088156, guid: 254cd73da79842f4a94d36d42a1da040,
        type: 3}
      propertyPath: m_LocalPosition.y
      value: 0
      objectReference: {fileID: 0}
    - target: {fileID: 5441489197459088156, guid: 254cd73da79842f4a94d36d42a1da040,
        type: 3}
      propertyPath: m_LocalPosition.z
      value: 0
      objectReference: {fileID: 0}
    - target: {fileID: 5441489197459088156, guid: 254cd73da79842f4a94d36d42a1da040,
        type: 3}
      propertyPath: m_LocalRotation.x
      value: -0
      objectReference: {fileID: 0}
    - target: {fileID: 5441489197459088156, guid: 254cd73da79842f4a94d36d42a1da040,
        type: 3}
      propertyPath: m_LocalRotation.y
      value: -0
      objectReference: {fileID: 0}
    - target: {fileID: 5441489197459088156, guid: 254cd73da79842f4a94d36d42a1da040,
        type: 3}
      propertyPath: m_LocalRotation.z
      value: -0
      objectReference: {fileID: 0}
    - target: {fileID: 5441489197459088156, guid: 254cd73da79842f4a94d36d42a1da040,
        type: 3}
      propertyPath: m_LocalRotation.w
      value: 1
      objectReference: {fileID: 0}
    - target: {fileID: 5441489197459088156, guid: 254cd73da79842f4a94d36d42a1da040,
        type: 3}
      propertyPath: m_RootOrder
      value: 12
      objectReference: {fileID: 0}
    - target: {fileID: 5441489197459088156, guid: 254cd73da79842f4a94d36d42a1da040,
        type: 3}
      propertyPath: m_LocalEulerAnglesHint.x
      value: 0
      objectReference: {fileID: 0}
    - target: {fileID: 5441489197459088156, guid: 254cd73da79842f4a94d36d42a1da040,
        type: 3}
      propertyPath: m_LocalEulerAnglesHint.y
      value: 0
      objectReference: {fileID: 0}
    - target: {fileID: 5441489197459088156, guid: 254cd73da79842f4a94d36d42a1da040,
        type: 3}
      propertyPath: m_LocalEulerAnglesHint.z
      value: 0
      objectReference: {fileID: 0}
    - target: {fileID: 5441489197459088156, guid: 254cd73da79842f4a94d36d42a1da040,
        type: 3}
      propertyPath: m_AnchoredPosition.x
      value: 272
      objectReference: {fileID: 0}
    - target: {fileID: 5441489197459088156, guid: 254cd73da79842f4a94d36d42a1da040,
        type: 3}
      propertyPath: m_AnchoredPosition.y
      value: -71.600006
      objectReference: {fileID: 0}
    - target: {fileID: 5441489197459088156, guid: 254cd73da79842f4a94d36d42a1da040,
        type: 3}
      propertyPath: m_SizeDelta.x
      value: 60
      objectReference: {fileID: 0}
    - target: {fileID: 5441489197459088156, guid: 254cd73da79842f4a94d36d42a1da040,
        type: 3}
      propertyPath: m_SizeDelta.y
      value: 60
      objectReference: {fileID: 0}
    - target: {fileID: 5441489197459088156, guid: 254cd73da79842f4a94d36d42a1da040,
        type: 3}
      propertyPath: m_AnchorMin.x
      value: 0
      objectReference: {fileID: 0}
    - target: {fileID: 5441489197459088156, guid: 254cd73da79842f4a94d36d42a1da040,
        type: 3}
      propertyPath: m_AnchorMin.y
      value: 1
      objectReference: {fileID: 0}
    - target: {fileID: 5441489197459088156, guid: 254cd73da79842f4a94d36d42a1da040,
        type: 3}
      propertyPath: m_AnchorMax.x
      value: 0
      objectReference: {fileID: 0}
    - target: {fileID: 5441489197459088156, guid: 254cd73da79842f4a94d36d42a1da040,
        type: 3}
      propertyPath: m_AnchorMax.y
      value: 1
      objectReference: {fileID: 0}
    - target: {fileID: 5441489197459088156, guid: 254cd73da79842f4a94d36d42a1da040,
        type: 3}
      propertyPath: m_Pivot.x
      value: 0.5
      objectReference: {fileID: 0}
    - target: {fileID: 5441489197459088156, guid: 254cd73da79842f4a94d36d42a1da040,
        type: 3}
      propertyPath: m_Pivot.y
      value: 0.5
      objectReference: {fileID: 0}
    m_RemovedComponents: []
  m_SourcePrefab: {fileID: 100100000, guid: 254cd73da79842f4a94d36d42a1da040, type: 3}
--- !u!1001 &996724499
PrefabInstance:
  m_ObjectHideFlags: 0
  serializedVersion: 2
  m_Modification:
    m_TransformParent: {fileID: 1916489734}
    m_Modifications:
    - target: {fileID: 5441489197459088159, guid: 254cd73da79842f4a94d36d42a1da040,
        type: 3}
      propertyPath: m_Name
      value: Inventory Slot (8)
      objectReference: {fileID: 0}
    - target: {fileID: 5441489197459088156, guid: 254cd73da79842f4a94d36d42a1da040,
        type: 3}
      propertyPath: m_LocalPosition.x
      value: 0
      objectReference: {fileID: 0}
    - target: {fileID: 5441489197459088156, guid: 254cd73da79842f4a94d36d42a1da040,
        type: 3}
      propertyPath: m_LocalPosition.y
      value: 0
      objectReference: {fileID: 0}
    - target: {fileID: 5441489197459088156, guid: 254cd73da79842f4a94d36d42a1da040,
        type: 3}
      propertyPath: m_LocalPosition.z
      value: 0
      objectReference: {fileID: 0}
    - target: {fileID: 5441489197459088156, guid: 254cd73da79842f4a94d36d42a1da040,
        type: 3}
      propertyPath: m_LocalRotation.x
      value: -0
      objectReference: {fileID: 0}
    - target: {fileID: 5441489197459088156, guid: 254cd73da79842f4a94d36d42a1da040,
        type: 3}
      propertyPath: m_LocalRotation.y
      value: -0
      objectReference: {fileID: 0}
    - target: {fileID: 5441489197459088156, guid: 254cd73da79842f4a94d36d42a1da040,
        type: 3}
      propertyPath: m_LocalRotation.z
      value: -0
      objectReference: {fileID: 0}
    - target: {fileID: 5441489197459088156, guid: 254cd73da79842f4a94d36d42a1da040,
        type: 3}
      propertyPath: m_LocalRotation.w
      value: 1
      objectReference: {fileID: 0}
    - target: {fileID: 5441489197459088156, guid: 254cd73da79842f4a94d36d42a1da040,
        type: 3}
      propertyPath: m_RootOrder
      value: 10
      objectReference: {fileID: 0}
    - target: {fileID: 5441489197459088156, guid: 254cd73da79842f4a94d36d42a1da040,
        type: 3}
      propertyPath: m_LocalEulerAnglesHint.x
      value: 0
      objectReference: {fileID: 0}
    - target: {fileID: 5441489197459088156, guid: 254cd73da79842f4a94d36d42a1da040,
        type: 3}
      propertyPath: m_LocalEulerAnglesHint.y
      value: 0
      objectReference: {fileID: 0}
    - target: {fileID: 5441489197459088156, guid: 254cd73da79842f4a94d36d42a1da040,
        type: 3}
      propertyPath: m_LocalEulerAnglesHint.z
      value: 0
      objectReference: {fileID: 0}
    - target: {fileID: 5441489197459088156, guid: 254cd73da79842f4a94d36d42a1da040,
        type: 3}
      propertyPath: m_AnchoredPosition.x
      value: 112
      objectReference: {fileID: 0}
    - target: {fileID: 5441489197459088156, guid: 254cd73da79842f4a94d36d42a1da040,
        type: 3}
      propertyPath: m_AnchoredPosition.y
      value: -71.600006
      objectReference: {fileID: 0}
    - target: {fileID: 5441489197459088156, guid: 254cd73da79842f4a94d36d42a1da040,
        type: 3}
      propertyPath: m_SizeDelta.x
      value: 60
      objectReference: {fileID: 0}
    - target: {fileID: 5441489197459088156, guid: 254cd73da79842f4a94d36d42a1da040,
        type: 3}
      propertyPath: m_SizeDelta.y
      value: 60
      objectReference: {fileID: 0}
    - target: {fileID: 5441489197459088156, guid: 254cd73da79842f4a94d36d42a1da040,
        type: 3}
      propertyPath: m_AnchorMin.x
      value: 0
      objectReference: {fileID: 0}
    - target: {fileID: 5441489197459088156, guid: 254cd73da79842f4a94d36d42a1da040,
        type: 3}
      propertyPath: m_AnchorMin.y
      value: 1
      objectReference: {fileID: 0}
    - target: {fileID: 5441489197459088156, guid: 254cd73da79842f4a94d36d42a1da040,
        type: 3}
      propertyPath: m_AnchorMax.x
      value: 0
      objectReference: {fileID: 0}
    - target: {fileID: 5441489197459088156, guid: 254cd73da79842f4a94d36d42a1da040,
        type: 3}
      propertyPath: m_AnchorMax.y
      value: 1
      objectReference: {fileID: 0}
    - target: {fileID: 5441489197459088156, guid: 254cd73da79842f4a94d36d42a1da040,
        type: 3}
      propertyPath: m_Pivot.x
      value: 0.5
      objectReference: {fileID: 0}
    - target: {fileID: 5441489197459088156, guid: 254cd73da79842f4a94d36d42a1da040,
        type: 3}
      propertyPath: m_Pivot.y
      value: 0.5
      objectReference: {fileID: 0}
    m_RemovedComponents: []
  m_SourcePrefab: {fileID: 100100000, guid: 254cd73da79842f4a94d36d42a1da040, type: 3}
--- !u!1001 &1065811953
PrefabInstance:
  m_ObjectHideFlags: 0
  serializedVersion: 2
  m_Modification:
    m_TransformParent: {fileID: 1916489734}
    m_Modifications:
    - target: {fileID: 5441489197459088159, guid: 254cd73da79842f4a94d36d42a1da040,
        type: 3}
      propertyPath: m_Name
      value: Inventory Slot (5)
      objectReference: {fileID: 0}
    - target: {fileID: 5441489197459088156, guid: 254cd73da79842f4a94d36d42a1da040,
        type: 3}
      propertyPath: m_LocalPosition.x
      value: 0
      objectReference: {fileID: 0}
    - target: {fileID: 5441489197459088156, guid: 254cd73da79842f4a94d36d42a1da040,
        type: 3}
      propertyPath: m_LocalPosition.y
      value: 0
      objectReference: {fileID: 0}
    - target: {fileID: 5441489197459088156, guid: 254cd73da79842f4a94d36d42a1da040,
        type: 3}
      propertyPath: m_LocalPosition.z
      value: 0
      objectReference: {fileID: 0}
    - target: {fileID: 5441489197459088156, guid: 254cd73da79842f4a94d36d42a1da040,
        type: 3}
      propertyPath: m_LocalRotation.x
      value: -0
      objectReference: {fileID: 0}
    - target: {fileID: 5441489197459088156, guid: 254cd73da79842f4a94d36d42a1da040,
        type: 3}
      propertyPath: m_LocalRotation.y
      value: -0
      objectReference: {fileID: 0}
    - target: {fileID: 5441489197459088156, guid: 254cd73da79842f4a94d36d42a1da040,
        type: 3}
      propertyPath: m_LocalRotation.z
      value: -0
      objectReference: {fileID: 0}
    - target: {fileID: 5441489197459088156, guid: 254cd73da79842f4a94d36d42a1da040,
        type: 3}
      propertyPath: m_LocalRotation.w
      value: 1
      objectReference: {fileID: 0}
    - target: {fileID: 5441489197459088156, guid: 254cd73da79842f4a94d36d42a1da040,
        type: 3}
      propertyPath: m_RootOrder
      value: 7
      objectReference: {fileID: 0}
    - target: {fileID: 5441489197459088156, guid: 254cd73da79842f4a94d36d42a1da040,
        type: 3}
      propertyPath: m_LocalEulerAnglesHint.x
      value: 0
      objectReference: {fileID: 0}
    - target: {fileID: 5441489197459088156, guid: 254cd73da79842f4a94d36d42a1da040,
        type: 3}
      propertyPath: m_LocalEulerAnglesHint.y
      value: 0
      objectReference: {fileID: 0}
    - target: {fileID: 5441489197459088156, guid: 254cd73da79842f4a94d36d42a1da040,
        type: 3}
      propertyPath: m_LocalEulerAnglesHint.z
      value: 0
      objectReference: {fileID: 0}
    - target: {fileID: 5441489197459088156, guid: 254cd73da79842f4a94d36d42a1da040,
        type: 3}
      propertyPath: m_AnchoredPosition.x
      value: 358.4
      objectReference: {fileID: 0}
    - target: {fileID: 5441489197459088156, guid: 254cd73da79842f4a94d36d42a1da040,
        type: 3}
      propertyPath: m_AnchoredPosition.y
      value: -3.5
      objectReference: {fileID: 0}
    - target: {fileID: 5441489197459088156, guid: 254cd73da79842f4a94d36d42a1da040,
        type: 3}
      propertyPath: m_SizeDelta.x
      value: 60
      objectReference: {fileID: 0}
    - target: {fileID: 5441489197459088156, guid: 254cd73da79842f4a94d36d42a1da040,
        type: 3}
      propertyPath: m_SizeDelta.y
      value: 60
      objectReference: {fileID: 0}
    - target: {fileID: 5441489197459088156, guid: 254cd73da79842f4a94d36d42a1da040,
        type: 3}
      propertyPath: m_AnchorMin.x
      value: 0
      objectReference: {fileID: 0}
    - target: {fileID: 5441489197459088156, guid: 254cd73da79842f4a94d36d42a1da040,
        type: 3}
      propertyPath: m_AnchorMin.y
      value: 1
      objectReference: {fileID: 0}
    - target: {fileID: 5441489197459088156, guid: 254cd73da79842f4a94d36d42a1da040,
        type: 3}
      propertyPath: m_AnchorMax.x
      value: 0
      objectReference: {fileID: 0}
    - target: {fileID: 5441489197459088156, guid: 254cd73da79842f4a94d36d42a1da040,
        type: 3}
      propertyPath: m_AnchorMax.y
      value: 1
      objectReference: {fileID: 0}
    - target: {fileID: 5441489197459088156, guid: 254cd73da79842f4a94d36d42a1da040,
        type: 3}
      propertyPath: m_Pivot.x
      value: 0.5
      objectReference: {fileID: 0}
    - target: {fileID: 5441489197459088156, guid: 254cd73da79842f4a94d36d42a1da040,
        type: 3}
      propertyPath: m_Pivot.y
      value: 0.5
      objectReference: {fileID: 0}
    m_RemovedComponents: []
  m_SourcePrefab: {fileID: 100100000, guid: 254cd73da79842f4a94d36d42a1da040, type: 3}
--- !u!1001 &1151879037
PrefabInstance:
  m_ObjectHideFlags: 0
  serializedVersion: 2
  m_Modification:
    m_TransformParent: {fileID: 1916489734}
    m_Modifications:
    - target: {fileID: 5441489197459088159, guid: 254cd73da79842f4a94d36d42a1da040,
        type: 3}
      propertyPath: m_Name
      value: Inventory Slot (11)
      objectReference: {fileID: 0}
    - target: {fileID: 5441489197459088156, guid: 254cd73da79842f4a94d36d42a1da040,
        type: 3}
      propertyPath: m_LocalPosition.x
      value: 0
      objectReference: {fileID: 0}
    - target: {fileID: 5441489197459088156, guid: 254cd73da79842f4a94d36d42a1da040,
        type: 3}
      propertyPath: m_LocalPosition.y
      value: 0
      objectReference: {fileID: 0}
    - target: {fileID: 5441489197459088156, guid: 254cd73da79842f4a94d36d42a1da040,
        type: 3}
      propertyPath: m_LocalPosition.z
      value: 0
      objectReference: {fileID: 0}
    - target: {fileID: 5441489197459088156, guid: 254cd73da79842f4a94d36d42a1da040,
        type: 3}
      propertyPath: m_LocalRotation.x
      value: -0
      objectReference: {fileID: 0}
    - target: {fileID: 5441489197459088156, guid: 254cd73da79842f4a94d36d42a1da040,
        type: 3}
      propertyPath: m_LocalRotation.y
      value: -0
      objectReference: {fileID: 0}
    - target: {fileID: 5441489197459088156, guid: 254cd73da79842f4a94d36d42a1da040,
        type: 3}
      propertyPath: m_LocalRotation.z
      value: -0
      objectReference: {fileID: 0}
    - target: {fileID: 5441489197459088156, guid: 254cd73da79842f4a94d36d42a1da040,
        type: 3}
      propertyPath: m_LocalRotation.w
      value: 1
      objectReference: {fileID: 0}
    - target: {fileID: 5441489197459088156, guid: 254cd73da79842f4a94d36d42a1da040,
        type: 3}
      propertyPath: m_RootOrder
      value: 13
      objectReference: {fileID: 0}
    - target: {fileID: 5441489197459088156, guid: 254cd73da79842f4a94d36d42a1da040,
        type: 3}
      propertyPath: m_LocalEulerAnglesHint.x
      value: 0
      objectReference: {fileID: 0}
    - target: {fileID: 5441489197459088156, guid: 254cd73da79842f4a94d36d42a1da040,
        type: 3}
      propertyPath: m_LocalEulerAnglesHint.y
      value: 0
      objectReference: {fileID: 0}
    - target: {fileID: 5441489197459088156, guid: 254cd73da79842f4a94d36d42a1da040,
        type: 3}
      propertyPath: m_LocalEulerAnglesHint.z
      value: 0
      objectReference: {fileID: 0}
    - target: {fileID: 5441489197459088156, guid: 254cd73da79842f4a94d36d42a1da040,
        type: 3}
      propertyPath: m_AnchoredPosition.x
      value: 191
      objectReference: {fileID: 0}
    - target: {fileID: 5441489197459088156, guid: 254cd73da79842f4a94d36d42a1da040,
        type: 3}
      propertyPath: m_AnchoredPosition.y
      value: -71.600006
      objectReference: {fileID: 0}
    - target: {fileID: 5441489197459088156, guid: 254cd73da79842f4a94d36d42a1da040,
        type: 3}
      propertyPath: m_SizeDelta.x
      value: 60
      objectReference: {fileID: 0}
    - target: {fileID: 5441489197459088156, guid: 254cd73da79842f4a94d36d42a1da040,
        type: 3}
      propertyPath: m_SizeDelta.y
      value: 60
      objectReference: {fileID: 0}
    - target: {fileID: 5441489197459088156, guid: 254cd73da79842f4a94d36d42a1da040,
        type: 3}
      propertyPath: m_AnchorMin.x
      value: 0
      objectReference: {fileID: 0}
    - target: {fileID: 5441489197459088156, guid: 254cd73da79842f4a94d36d42a1da040,
        type: 3}
      propertyPath: m_AnchorMin.y
      value: 1
      objectReference: {fileID: 0}
    - target: {fileID: 5441489197459088156, guid: 254cd73da79842f4a94d36d42a1da040,
        type: 3}
      propertyPath: m_AnchorMax.x
      value: 0
      objectReference: {fileID: 0}
    - target: {fileID: 5441489197459088156, guid: 254cd73da79842f4a94d36d42a1da040,
        type: 3}
      propertyPath: m_AnchorMax.y
      value: 1
      objectReference: {fileID: 0}
    - target: {fileID: 5441489197459088156, guid: 254cd73da79842f4a94d36d42a1da040,
        type: 3}
      propertyPath: m_Pivot.x
      value: 0.5
      objectReference: {fileID: 0}
    - target: {fileID: 5441489197459088156, guid: 254cd73da79842f4a94d36d42a1da040,
        type: 3}
      propertyPath: m_Pivot.y
      value: 0.5
      objectReference: {fileID: 0}
    m_RemovedComponents: []
  m_SourcePrefab: {fileID: 100100000, guid: 254cd73da79842f4a94d36d42a1da040, type: 3}
--- !u!1001 &1220577208
PrefabInstance:
  m_ObjectHideFlags: 0
  serializedVersion: 2
  m_Modification:
    m_TransformParent: {fileID: 1916489734}
    m_Modifications:
    - target: {fileID: 5441489197459088159, guid: 254cd73da79842f4a94d36d42a1da040,
        type: 3}
      propertyPath: m_Name
      value: Inventory Slot (12)
      objectReference: {fileID: 0}
    - target: {fileID: 5441489197459088156, guid: 254cd73da79842f4a94d36d42a1da040,
        type: 3}
      propertyPath: m_LocalPosition.x
      value: 0
      objectReference: {fileID: 0}
    - target: {fileID: 5441489197459088156, guid: 254cd73da79842f4a94d36d42a1da040,
        type: 3}
      propertyPath: m_LocalPosition.y
      value: 0
      objectReference: {fileID: 0}
    - target: {fileID: 5441489197459088156, guid: 254cd73da79842f4a94d36d42a1da040,
        type: 3}
      propertyPath: m_LocalPosition.z
      value: 0
      objectReference: {fileID: 0}
    - target: {fileID: 5441489197459088156, guid: 254cd73da79842f4a94d36d42a1da040,
        type: 3}
      propertyPath: m_LocalRotation.x
      value: -0
      objectReference: {fileID: 0}
    - target: {fileID: 5441489197459088156, guid: 254cd73da79842f4a94d36d42a1da040,
        type: 3}
      propertyPath: m_LocalRotation.y
      value: -0
      objectReference: {fileID: 0}
    - target: {fileID: 5441489197459088156, guid: 254cd73da79842f4a94d36d42a1da040,
        type: 3}
      propertyPath: m_LocalRotation.z
      value: -0
      objectReference: {fileID: 0}
    - target: {fileID: 5441489197459088156, guid: 254cd73da79842f4a94d36d42a1da040,
        type: 3}
      propertyPath: m_LocalRotation.w
      value: 1
      objectReference: {fileID: 0}
    - target: {fileID: 5441489197459088156, guid: 254cd73da79842f4a94d36d42a1da040,
        type: 3}
      propertyPath: m_RootOrder
      value: 14
      objectReference: {fileID: 0}
    - target: {fileID: 5441489197459088156, guid: 254cd73da79842f4a94d36d42a1da040,
        type: 3}
      propertyPath: m_LocalEulerAnglesHint.x
      value: 0
      objectReference: {fileID: 0}
    - target: {fileID: 5441489197459088156, guid: 254cd73da79842f4a94d36d42a1da040,
        type: 3}
      propertyPath: m_LocalEulerAnglesHint.y
      value: 0
      objectReference: {fileID: 0}
    - target: {fileID: 5441489197459088156, guid: 254cd73da79842f4a94d36d42a1da040,
        type: 3}
      propertyPath: m_LocalEulerAnglesHint.z
      value: 0
      objectReference: {fileID: 0}
    - target: {fileID: 5441489197459088156, guid: 254cd73da79842f4a94d36d42a1da040,
        type: 3}
      propertyPath: m_AnchoredPosition.x
      value: 358.4
      objectReference: {fileID: 0}
    - target: {fileID: 5441489197459088156, guid: 254cd73da79842f4a94d36d42a1da040,
        type: 3}
      propertyPath: m_AnchoredPosition.y
      value: -71.6
      objectReference: {fileID: 0}
    - target: {fileID: 5441489197459088156, guid: 254cd73da79842f4a94d36d42a1da040,
        type: 3}
      propertyPath: m_SizeDelta.x
      value: 60
      objectReference: {fileID: 0}
    - target: {fileID: 5441489197459088156, guid: 254cd73da79842f4a94d36d42a1da040,
        type: 3}
      propertyPath: m_SizeDelta.y
      value: 60
      objectReference: {fileID: 0}
    - target: {fileID: 5441489197459088156, guid: 254cd73da79842f4a94d36d42a1da040,
        type: 3}
      propertyPath: m_AnchorMin.x
      value: 0
      objectReference: {fileID: 0}
    - target: {fileID: 5441489197459088156, guid: 254cd73da79842f4a94d36d42a1da040,
        type: 3}
      propertyPath: m_AnchorMin.y
      value: 1
      objectReference: {fileID: 0}
    - target: {fileID: 5441489197459088156, guid: 254cd73da79842f4a94d36d42a1da040,
        type: 3}
      propertyPath: m_AnchorMax.x
      value: 0
      objectReference: {fileID: 0}
    - target: {fileID: 5441489197459088156, guid: 254cd73da79842f4a94d36d42a1da040,
        type: 3}
      propertyPath: m_AnchorMax.y
      value: 1
      objectReference: {fileID: 0}
    - target: {fileID: 5441489197459088156, guid: 254cd73da79842f4a94d36d42a1da040,
        type: 3}
      propertyPath: m_Pivot.x
      value: 0.5
      objectReference: {fileID: 0}
    - target: {fileID: 5441489197459088156, guid: 254cd73da79842f4a94d36d42a1da040,
        type: 3}
      propertyPath: m_Pivot.y
      value: 0.5
      objectReference: {fileID: 0}
    m_RemovedComponents: []
  m_SourcePrefab: {fileID: 100100000, guid: 254cd73da79842f4a94d36d42a1da040, type: 3}
--- !u!1001 &1279737435
PrefabInstance:
  m_ObjectHideFlags: 0
  serializedVersion: 2
  m_Modification:
    m_TransformParent: {fileID: 1916489734}
    m_Modifications:
    - target: {fileID: 5441489197459088159, guid: 254cd73da79842f4a94d36d42a1da040,
        type: 3}
      propertyPath: m_Name
      value: Inventory Slot (1)
      objectReference: {fileID: 0}
    - target: {fileID: 5441489197459088156, guid: 254cd73da79842f4a94d36d42a1da040,
        type: 3}
      propertyPath: m_LocalPosition.x
      value: 0
      objectReference: {fileID: 0}
    - target: {fileID: 5441489197459088156, guid: 254cd73da79842f4a94d36d42a1da040,
        type: 3}
      propertyPath: m_LocalPosition.y
      value: 0
      objectReference: {fileID: 0}
    - target: {fileID: 5441489197459088156, guid: 254cd73da79842f4a94d36d42a1da040,
        type: 3}
      propertyPath: m_LocalPosition.z
      value: 0
      objectReference: {fileID: 0}
    - target: {fileID: 5441489197459088156, guid: 254cd73da79842f4a94d36d42a1da040,
        type: 3}
      propertyPath: m_LocalRotation.x
      value: -0
      objectReference: {fileID: 0}
    - target: {fileID: 5441489197459088156, guid: 254cd73da79842f4a94d36d42a1da040,
        type: 3}
      propertyPath: m_LocalRotation.y
      value: -0
      objectReference: {fileID: 0}
    - target: {fileID: 5441489197459088156, guid: 254cd73da79842f4a94d36d42a1da040,
        type: 3}
      propertyPath: m_LocalRotation.z
      value: -0
      objectReference: {fileID: 0}
    - target: {fileID: 5441489197459088156, guid: 254cd73da79842f4a94d36d42a1da040,
        type: 3}
      propertyPath: m_LocalRotation.w
      value: 1
      objectReference: {fileID: 0}
    - target: {fileID: 5441489197459088156, guid: 254cd73da79842f4a94d36d42a1da040,
        type: 3}
      propertyPath: m_RootOrder
      value: 3
      objectReference: {fileID: 0}
    - target: {fileID: 5441489197459088156, guid: 254cd73da79842f4a94d36d42a1da040,
        type: 3}
      propertyPath: m_LocalEulerAnglesHint.x
      value: 0
      objectReference: {fileID: 0}
    - target: {fileID: 5441489197459088156, guid: 254cd73da79842f4a94d36d42a1da040,
        type: 3}
      propertyPath: m_LocalEulerAnglesHint.y
      value: 0
      objectReference: {fileID: 0}
    - target: {fileID: 5441489197459088156, guid: 254cd73da79842f4a94d36d42a1da040,
        type: 3}
      propertyPath: m_LocalEulerAnglesHint.z
      value: 0
      objectReference: {fileID: 0}
    - target: {fileID: 5441489197459088156, guid: 254cd73da79842f4a94d36d42a1da040,
        type: 3}
      propertyPath: m_AnchoredPosition.x
      value: 112
      objectReference: {fileID: 0}
    - target: {fileID: 5441489197459088156, guid: 254cd73da79842f4a94d36d42a1da040,
        type: 3}
      propertyPath: m_AnchoredPosition.y
      value: -3.5
      objectReference: {fileID: 0}
    - target: {fileID: 5441489197459088156, guid: 254cd73da79842f4a94d36d42a1da040,
        type: 3}
      propertyPath: m_SizeDelta.x
      value: 60
      objectReference: {fileID: 0}
    - target: {fileID: 5441489197459088156, guid: 254cd73da79842f4a94d36d42a1da040,
        type: 3}
      propertyPath: m_SizeDelta.y
      value: 60
      objectReference: {fileID: 0}
    - target: {fileID: 5441489197459088156, guid: 254cd73da79842f4a94d36d42a1da040,
        type: 3}
      propertyPath: m_AnchorMin.x
      value: 0
      objectReference: {fileID: 0}
    - target: {fileID: 5441489197459088156, guid: 254cd73da79842f4a94d36d42a1da040,
        type: 3}
      propertyPath: m_AnchorMin.y
      value: 1
      objectReference: {fileID: 0}
    - target: {fileID: 5441489197459088156, guid: 254cd73da79842f4a94d36d42a1da040,
        type: 3}
      propertyPath: m_AnchorMax.x
      value: 0
      objectReference: {fileID: 0}
    - target: {fileID: 5441489197459088156, guid: 254cd73da79842f4a94d36d42a1da040,
        type: 3}
      propertyPath: m_AnchorMax.y
      value: 1
      objectReference: {fileID: 0}
    - target: {fileID: 5441489197459088156, guid: 254cd73da79842f4a94d36d42a1da040,
        type: 3}
      propertyPath: m_Pivot.x
      value: 0.5
      objectReference: {fileID: 0}
    - target: {fileID: 5441489197459088156, guid: 254cd73da79842f4a94d36d42a1da040,
        type: 3}
      propertyPath: m_Pivot.y
      value: 0.5
      objectReference: {fileID: 0}
    m_RemovedComponents: []
  m_SourcePrefab: {fileID: 100100000, guid: 254cd73da79842f4a94d36d42a1da040, type: 3}
--- !u!1001 &1282971817
PrefabInstance:
  m_ObjectHideFlags: 0
  serializedVersion: 2
  m_Modification:
    m_TransformParent: {fileID: 1916489734}
    m_Modifications:
    - target: {fileID: 5441489197459088159, guid: 254cd73da79842f4a94d36d42a1da040,
        type: 3}
      propertyPath: m_Name
      value: Inventory Slot (2)
      objectReference: {fileID: 0}
    - target: {fileID: 5441489197459088156, guid: 254cd73da79842f4a94d36d42a1da040,
        type: 3}
      propertyPath: m_LocalPosition.x
      value: 0
      objectReference: {fileID: 0}
    - target: {fileID: 5441489197459088156, guid: 254cd73da79842f4a94d36d42a1da040,
        type: 3}
      propertyPath: m_LocalPosition.y
      value: 0
      objectReference: {fileID: 0}
    - target: {fileID: 5441489197459088156, guid: 254cd73da79842f4a94d36d42a1da040,
        type: 3}
      propertyPath: m_LocalPosition.z
      value: 0
      objectReference: {fileID: 0}
    - target: {fileID: 5441489197459088156, guid: 254cd73da79842f4a94d36d42a1da040,
        type: 3}
      propertyPath: m_LocalRotation.x
      value: -0
      objectReference: {fileID: 0}
    - target: {fileID: 5441489197459088156, guid: 254cd73da79842f4a94d36d42a1da040,
        type: 3}
      propertyPath: m_LocalRotation.y
      value: -0
      objectReference: {fileID: 0}
    - target: {fileID: 5441489197459088156, guid: 254cd73da79842f4a94d36d42a1da040,
        type: 3}
      propertyPath: m_LocalRotation.z
      value: -0
      objectReference: {fileID: 0}
    - target: {fileID: 5441489197459088156, guid: 254cd73da79842f4a94d36d42a1da040,
        type: 3}
      propertyPath: m_LocalRotation.w
      value: 1
      objectReference: {fileID: 0}
    - target: {fileID: 5441489197459088156, guid: 254cd73da79842f4a94d36d42a1da040,
        type: 3}
      propertyPath: m_RootOrder
      value: 4
      objectReference: {fileID: 0}
    - target: {fileID: 5441489197459088156, guid: 254cd73da79842f4a94d36d42a1da040,
        type: 3}
      propertyPath: m_LocalEulerAnglesHint.x
      value: 0
      objectReference: {fileID: 0}
    - target: {fileID: 5441489197459088156, guid: 254cd73da79842f4a94d36d42a1da040,
        type: 3}
      propertyPath: m_LocalEulerAnglesHint.y
      value: 0
      objectReference: {fileID: 0}
    - target: {fileID: 5441489197459088156, guid: 254cd73da79842f4a94d36d42a1da040,
        type: 3}
      propertyPath: m_LocalEulerAnglesHint.z
      value: 0
      objectReference: {fileID: 0}
    - target: {fileID: 5441489197459088156, guid: 254cd73da79842f4a94d36d42a1da040,
        type: 3}
      propertyPath: m_AnchoredPosition.x
      value: 191
      objectReference: {fileID: 0}
    - target: {fileID: 5441489197459088156, guid: 254cd73da79842f4a94d36d42a1da040,
        type: 3}
      propertyPath: m_AnchoredPosition.y
      value: -3.5
      objectReference: {fileID: 0}
    - target: {fileID: 5441489197459088156, guid: 254cd73da79842f4a94d36d42a1da040,
        type: 3}
      propertyPath: m_SizeDelta.x
      value: 60
      objectReference: {fileID: 0}
    - target: {fileID: 5441489197459088156, guid: 254cd73da79842f4a94d36d42a1da040,
        type: 3}
      propertyPath: m_SizeDelta.y
      value: 60
      objectReference: {fileID: 0}
    - target: {fileID: 5441489197459088156, guid: 254cd73da79842f4a94d36d42a1da040,
        type: 3}
      propertyPath: m_AnchorMin.x
      value: 0
      objectReference: {fileID: 0}
    - target: {fileID: 5441489197459088156, guid: 254cd73da79842f4a94d36d42a1da040,
        type: 3}
      propertyPath: m_AnchorMin.y
      value: 1
      objectReference: {fileID: 0}
    - target: {fileID: 5441489197459088156, guid: 254cd73da79842f4a94d36d42a1da040,
        type: 3}
      propertyPath: m_AnchorMax.x
      value: 0
      objectReference: {fileID: 0}
    - target: {fileID: 5441489197459088156, guid: 254cd73da79842f4a94d36d42a1da040,
        type: 3}
      propertyPath: m_AnchorMax.y
      value: 1
      objectReference: {fileID: 0}
    - target: {fileID: 5441489197459088156, guid: 254cd73da79842f4a94d36d42a1da040,
        type: 3}
      propertyPath: m_Pivot.x
      value: 0.5
      objectReference: {fileID: 0}
    - target: {fileID: 5441489197459088156, guid: 254cd73da79842f4a94d36d42a1da040,
        type: 3}
      propertyPath: m_Pivot.y
      value: 0.5
      objectReference: {fileID: 0}
    m_RemovedComponents: []
  m_SourcePrefab: {fileID: 100100000, guid: 254cd73da79842f4a94d36d42a1da040, type: 3}
--- !u!1001 &1536242969
PrefabInstance:
  m_ObjectHideFlags: 0
  serializedVersion: 2
  m_Modification:
    m_TransformParent: {fileID: 1916489734}
    m_Modifications:
    - target: {fileID: 5441489197459088159, guid: 254cd73da79842f4a94d36d42a1da040,
        type: 3}
      propertyPath: m_Name
      value: Inventory Slot (15)
      objectReference: {fileID: 0}
    - target: {fileID: 5441489197459088156, guid: 254cd73da79842f4a94d36d42a1da040,
        type: 3}
      propertyPath: m_LocalPosition.x
      value: 0
      objectReference: {fileID: 0}
    - target: {fileID: 5441489197459088156, guid: 254cd73da79842f4a94d36d42a1da040,
        type: 3}
      propertyPath: m_LocalPosition.y
      value: 0
      objectReference: {fileID: 0}
    - target: {fileID: 5441489197459088156, guid: 254cd73da79842f4a94d36d42a1da040,
        type: 3}
      propertyPath: m_LocalPosition.z
      value: 0
      objectReference: {fileID: 0}
    - target: {fileID: 5441489197459088156, guid: 254cd73da79842f4a94d36d42a1da040,
        type: 3}
      propertyPath: m_LocalRotation.x
      value: -0
      objectReference: {fileID: 0}
    - target: {fileID: 5441489197459088156, guid: 254cd73da79842f4a94d36d42a1da040,
        type: 3}
      propertyPath: m_LocalRotation.y
      value: -0
      objectReference: {fileID: 0}
    - target: {fileID: 5441489197459088156, guid: 254cd73da79842f4a94d36d42a1da040,
        type: 3}
      propertyPath: m_LocalRotation.z
      value: -0
      objectReference: {fileID: 0}
    - target: {fileID: 5441489197459088156, guid: 254cd73da79842f4a94d36d42a1da040,
        type: 3}
      propertyPath: m_LocalRotation.w
      value: 1
      objectReference: {fileID: 0}
    - target: {fileID: 5441489197459088156, guid: 254cd73da79842f4a94d36d42a1da040,
        type: 3}
      propertyPath: m_RootOrder
      value: 17
      objectReference: {fileID: 0}
    - target: {fileID: 5441489197459088156, guid: 254cd73da79842f4a94d36d42a1da040,
        type: 3}
      propertyPath: m_LocalEulerAnglesHint.x
      value: 0
      objectReference: {fileID: 0}
    - target: {fileID: 5441489197459088156, guid: 254cd73da79842f4a94d36d42a1da040,
        type: 3}
      propertyPath: m_LocalEulerAnglesHint.y
      value: 0
      objectReference: {fileID: 0}
    - target: {fileID: 5441489197459088156, guid: 254cd73da79842f4a94d36d42a1da040,
        type: 3}
      propertyPath: m_LocalEulerAnglesHint.z
      value: 0
      objectReference: {fileID: 0}
    - target: {fileID: 5441489197459088156, guid: 254cd73da79842f4a94d36d42a1da040,
        type: 3}
      propertyPath: m_AnchoredPosition.x
      value: 506.6
      objectReference: {fileID: 0}
    - target: {fileID: 5441489197459088156, guid: 254cd73da79842f4a94d36d42a1da040,
        type: 3}
      propertyPath: m_AnchoredPosition.y
      value: -71.600006
      objectReference: {fileID: 0}
    - target: {fileID: 5441489197459088156, guid: 254cd73da79842f4a94d36d42a1da040,
        type: 3}
      propertyPath: m_SizeDelta.x
      value: 60
      objectReference: {fileID: 0}
    - target: {fileID: 5441489197459088156, guid: 254cd73da79842f4a94d36d42a1da040,
        type: 3}
      propertyPath: m_SizeDelta.y
      value: 60
      objectReference: {fileID: 0}
    - target: {fileID: 5441489197459088156, guid: 254cd73da79842f4a94d36d42a1da040,
        type: 3}
      propertyPath: m_AnchorMin.x
      value: 0
      objectReference: {fileID: 0}
    - target: {fileID: 5441489197459088156, guid: 254cd73da79842f4a94d36d42a1da040,
        type: 3}
      propertyPath: m_AnchorMin.y
      value: 1
      objectReference: {fileID: 0}
    - target: {fileID: 5441489197459088156, guid: 254cd73da79842f4a94d36d42a1da040,
        type: 3}
      propertyPath: m_AnchorMax.x
      value: 0
      objectReference: {fileID: 0}
    - target: {fileID: 5441489197459088156, guid: 254cd73da79842f4a94d36d42a1da040,
        type: 3}
      propertyPath: m_AnchorMax.y
      value: 1
      objectReference: {fileID: 0}
    - target: {fileID: 5441489197459088156, guid: 254cd73da79842f4a94d36d42a1da040,
        type: 3}
      propertyPath: m_Pivot.x
      value: 0.5
      objectReference: {fileID: 0}
    - target: {fileID: 5441489197459088156, guid: 254cd73da79842f4a94d36d42a1da040,
        type: 3}
      propertyPath: m_Pivot.y
      value: 0.5
      objectReference: {fileID: 0}
    m_RemovedComponents: []
  m_SourcePrefab: {fileID: 100100000, guid: 254cd73da79842f4a94d36d42a1da040, type: 3}
--- !u!1 &1547774240
GameObject:
  m_ObjectHideFlags: 0
  m_CorrespondingSourceObject: {fileID: 0}
  m_PrefabInstance: {fileID: 0}
  m_PrefabAsset: {fileID: 0}
  serializedVersion: 6
  m_Component:
  - component: {fileID: 1547774244}
  - component: {fileID: 1547774243}
  - component: {fileID: 1547774242}
  - component: {fileID: 1547774241}
  m_Layer: 5
  m_Name: Canvas
  m_TagString: Untagged
  m_Icon: {fileID: 0}
  m_NavMeshLayer: 0
  m_StaticEditorFlags: 0
  m_IsActive: 1
--- !u!114 &1547774241
MonoBehaviour:
  m_ObjectHideFlags: 0
  m_CorrespondingSourceObject: {fileID: 0}
  m_PrefabInstance: {fileID: 0}
  m_PrefabAsset: {fileID: 0}
  m_GameObject: {fileID: 1547774240}
  m_Enabled: 1
  m_EditorHideFlags: 0
  m_Script: {fileID: 11500000, guid: dc42784cf147c0c48a680349fa168899, type: 3}
  m_Name: 
  m_EditorClassIdentifier: 
  m_IgnoreReversedGraphics: 1
  m_BlockingObjects: 0
  m_BlockingMask:
    serializedVersion: 2
    m_Bits: 4294967295
--- !u!114 &1547774242
MonoBehaviour:
  m_ObjectHideFlags: 0
  m_CorrespondingSourceObject: {fileID: 0}
  m_PrefabInstance: {fileID: 0}
  m_PrefabAsset: {fileID: 0}
  m_GameObject: {fileID: 1547774240}
  m_Enabled: 1
  m_EditorHideFlags: 0
  m_Script: {fileID: 11500000, guid: 0cd44c1031e13a943bb63640046fad76, type: 3}
  m_Name: 
  m_EditorClassIdentifier: 
  m_UiScaleMode: 0
  m_ReferencePixelsPerUnit: 100
  m_ScaleFactor: 1
  m_ReferenceResolution: {x: 800, y: 600}
  m_ScreenMatchMode: 0
  m_MatchWidthOrHeight: 0
  m_PhysicalUnit: 3
  m_FallbackScreenDPI: 96
  m_DefaultSpriteDPI: 96
  m_DynamicPixelsPerUnit: 1
--- !u!223 &1547774243
Canvas:
  m_ObjectHideFlags: 0
  m_CorrespondingSourceObject: {fileID: 0}
  m_PrefabInstance: {fileID: 0}
  m_PrefabAsset: {fileID: 0}
  m_GameObject: {fileID: 1547774240}
  m_Enabled: 1
  serializedVersion: 3
  m_RenderMode: 0
  m_Camera: {fileID: 0}
  m_PlaneDistance: 100
  m_PixelPerfect: 0
  m_ReceivesEvents: 1
  m_OverrideSorting: 0
  m_OverridePixelPerfect: 0
  m_SortingBucketNormalizedSize: 0
  m_AdditionalShaderChannelsFlag: 0
  m_SortingLayerID: 0
  m_SortingOrder: 0
  m_TargetDisplay: 0
--- !u!224 &1547774244
RectTransform:
  m_ObjectHideFlags: 0
  m_CorrespondingSourceObject: {fileID: 0}
  m_PrefabInstance: {fileID: 0}
  m_PrefabAsset: {fileID: 0}
  m_GameObject: {fileID: 1547774240}
  m_LocalRotation: {x: 0, y: 0, z: 0, w: 1}
  m_LocalPosition: {x: 0, y: 0, z: 0}
  m_LocalScale: {x: 0, y: 0, z: 0}
  m_Children:
  - {fileID: 1916489734}
  m_Father: {fileID: 0}
  m_RootOrder: 3
  m_LocalEulerAnglesHint: {x: 0, y: 0, z: 0}
  m_AnchorMin: {x: 0, y: 0}
  m_AnchorMax: {x: 0, y: 0}
  m_AnchoredPosition: {x: 0, y: 0}
  m_SizeDelta: {x: 0, y: 0}
  m_Pivot: {x: 0, y: 0}
--- !u!1 &1618202243
GameObject:
  m_ObjectHideFlags: 0
  m_CorrespondingSourceObject: {fileID: 0}
  m_PrefabInstance: {fileID: 0}
  m_PrefabAsset: {fileID: 0}
  serializedVersion: 6
  m_Component:
  - component: {fileID: 1618202244}
  - component: {fileID: 1618202245}
  m_Layer: 0
  m_Name: Inventory
  m_TagString: Untagged
  m_Icon: {fileID: 0}
  m_NavMeshLayer: 0
  m_StaticEditorFlags: 0
  m_IsActive: 1
--- !u!4 &1618202244
Transform:
  m_ObjectHideFlags: 0
  m_CorrespondingSourceObject: {fileID: 0}
  m_PrefabInstance: {fileID: 0}
  m_PrefabAsset: {fileID: 0}
  m_GameObject: {fileID: 1618202243}
  m_LocalRotation: {x: 0, y: 0, z: 0, w: 1}
  m_LocalPosition: {x: 0, y: 0, z: 0}
  m_LocalScale: {x: 1, y: 1, z: 1}
  m_Children: []
  m_Father: {fileID: 0}
  m_RootOrder: 1
  m_LocalEulerAnglesHint: {x: 0, y: 0, z: 0}
--- !u!114 &1618202245
MonoBehaviour:
  m_ObjectHideFlags: 0
  m_CorrespondingSourceObject: {fileID: 0}
  m_PrefabInstance: {fileID: 0}
  m_PrefabAsset: {fileID: 0}
  m_GameObject: {fileID: 1618202243}
  m_Enabled: 1
  m_EditorHideFlags: 0
  m_Script: {fileID: 11500000, guid: de163c7623946084ab53838e851613a2, type: 3}
  m_Name: 
  m_EditorClassIdentifier: 
  InvItem: {fileID: 76511146}
  SlotLimit: 0
--- !u!1001 &1832048944
PrefabInstance:
  m_ObjectHideFlags: 0
  serializedVersion: 2
  m_Modification:
    m_TransformParent: {fileID: 1916489734}
    m_Modifications:
    - target: {fileID: 5441489197459088159, guid: 254cd73da79842f4a94d36d42a1da040,
        type: 3}
      propertyPath: m_Name
      value: Inventory Slot (6)
      objectReference: {fileID: 0}
    - target: {fileID: 5441489197459088156, guid: 254cd73da79842f4a94d36d42a1da040,
        type: 3}
      propertyPath: m_LocalPosition.x
      value: 0
      objectReference: {fileID: 0}
    - target: {fileID: 5441489197459088156, guid: 254cd73da79842f4a94d36d42a1da040,
        type: 3}
      propertyPath: m_LocalPosition.y
      value: 0
      objectReference: {fileID: 0}
    - target: {fileID: 5441489197459088156, guid: 254cd73da79842f4a94d36d42a1da040,
        type: 3}
      propertyPath: m_LocalPosition.z
      value: 0
      objectReference: {fileID: 0}
    - target: {fileID: 5441489197459088156, guid: 254cd73da79842f4a94d36d42a1da040,
        type: 3}
      propertyPath: m_LocalRotation.x
      value: -0
      objectReference: {fileID: 0}
    - target: {fileID: 5441489197459088156, guid: 254cd73da79842f4a94d36d42a1da040,
        type: 3}
      propertyPath: m_LocalRotation.y
      value: -0
      objectReference: {fileID: 0}
    - target: {fileID: 5441489197459088156, guid: 254cd73da79842f4a94d36d42a1da040,
        type: 3}
      propertyPath: m_LocalRotation.z
      value: -0
      objectReference: {fileID: 0}
    - target: {fileID: 5441489197459088156, guid: 254cd73da79842f4a94d36d42a1da040,
        type: 3}
      propertyPath: m_LocalRotation.w
      value: 1
      objectReference: {fileID: 0}
    - target: {fileID: 5441489197459088156, guid: 254cd73da79842f4a94d36d42a1da040,
        type: 3}
      propertyPath: m_RootOrder
      value: 8
      objectReference: {fileID: 0}
    - target: {fileID: 5441489197459088156, guid: 254cd73da79842f4a94d36d42a1da040,
        type: 3}
      propertyPath: m_LocalEulerAnglesHint.x
      value: 0
      objectReference: {fileID: 0}
    - target: {fileID: 5441489197459088156, guid: 254cd73da79842f4a94d36d42a1da040,
        type: 3}
      propertyPath: m_LocalEulerAnglesHint.y
      value: 0
      objectReference: {fileID: 0}
    - target: {fileID: 5441489197459088156, guid: 254cd73da79842f4a94d36d42a1da040,
        type: 3}
      propertyPath: m_LocalEulerAnglesHint.z
      value: 0
      objectReference: {fileID: 0}
    - target: {fileID: 5441489197459088156, guid: 254cd73da79842f4a94d36d42a1da040,
        type: 3}
      propertyPath: m_AnchoredPosition.x
      value: 587.6
      objectReference: {fileID: 0}
    - target: {fileID: 5441489197459088156, guid: 254cd73da79842f4a94d36d42a1da040,
        type: 3}
      propertyPath: m_AnchoredPosition.y
      value: -3.5
      objectReference: {fileID: 0}
    - target: {fileID: 5441489197459088156, guid: 254cd73da79842f4a94d36d42a1da040,
        type: 3}
      propertyPath: m_SizeDelta.x
      value: 60
      objectReference: {fileID: 0}
    - target: {fileID: 5441489197459088156, guid: 254cd73da79842f4a94d36d42a1da040,
        type: 3}
      propertyPath: m_SizeDelta.y
      value: 60
      objectReference: {fileID: 0}
    - target: {fileID: 5441489197459088156, guid: 254cd73da79842f4a94d36d42a1da040,
        type: 3}
      propertyPath: m_AnchorMin.x
      value: 0
      objectReference: {fileID: 0}
    - target: {fileID: 5441489197459088156, guid: 254cd73da79842f4a94d36d42a1da040,
        type: 3}
      propertyPath: m_AnchorMin.y
      value: 1
      objectReference: {fileID: 0}
    - target: {fileID: 5441489197459088156, guid: 254cd73da79842f4a94d36d42a1da040,
        type: 3}
      propertyPath: m_AnchorMax.x
      value: 0
      objectReference: {fileID: 0}
    - target: {fileID: 5441489197459088156, guid: 254cd73da79842f4a94d36d42a1da040,
        type: 3}
      propertyPath: m_AnchorMax.y
      value: 1
      objectReference: {fileID: 0}
    - target: {fileID: 5441489197459088156, guid: 254cd73da79842f4a94d36d42a1da040,
        type: 3}
      propertyPath: m_Pivot.x
      value: 0.5
      objectReference: {fileID: 0}
    - target: {fileID: 5441489197459088156, guid: 254cd73da79842f4a94d36d42a1da040,
        type: 3}
      propertyPath: m_Pivot.y
      value: 0.5
      objectReference: {fileID: 0}
    m_RemovedComponents: []
  m_SourcePrefab: {fileID: 100100000, guid: 254cd73da79842f4a94d36d42a1da040, type: 3}
--- !u!224 &1916489734 stripped
RectTransform:
  m_CorrespondingSourceObject: {fileID: 2529273763783303849, guid: 48e4cf5c05ea60b478b4527624aacb6c,
    type: 3}
  m_PrefabInstance: {fileID: 149235235}
  m_PrefabAsset: {fileID: 0}
--- !u!1001 &2050429685
PrefabInstance:
  m_ObjectHideFlags: 0
  serializedVersion: 2
  m_Modification:
    m_TransformParent: {fileID: 1916489734}
    m_Modifications:
    - target: {fileID: 5441489197459088159, guid: 254cd73da79842f4a94d36d42a1da040,
        type: 3}
      propertyPath: m_Name
      value: Inventory Slot (9)
      objectReference: {fileID: 0}
    - target: {fileID: 5441489197459088156, guid: 254cd73da79842f4a94d36d42a1da040,
        type: 3}
      propertyPath: m_LocalPosition.x
      value: 0
      objectReference: {fileID: 0}
    - target: {fileID: 5441489197459088156, guid: 254cd73da79842f4a94d36d42a1da040,
        type: 3}
      propertyPath: m_LocalPosition.y
      value: 0
      objectReference: {fileID: 0}
    - target: {fileID: 5441489197459088156, guid: 254cd73da79842f4a94d36d42a1da040,
        type: 3}
      propertyPath: m_LocalPosition.z
      value: 0
      objectReference: {fileID: 0}
    - target: {fileID: 5441489197459088156, guid: 254cd73da79842f4a94d36d42a1da040,
        type: 3}
      propertyPath: m_LocalRotation.x
      value: -0
      objectReference: {fileID: 0}
    - target: {fileID: 5441489197459088156, guid: 254cd73da79842f4a94d36d42a1da040,
        type: 3}
      propertyPath: m_LocalRotation.y
      value: -0
      objectReference: {fileID: 0}
    - target: {fileID: 5441489197459088156, guid: 254cd73da79842f4a94d36d42a1da040,
        type: 3}
      propertyPath: m_LocalRotation.z
      value: -0
      objectReference: {fileID: 0}
    - target: {fileID: 5441489197459088156, guid: 254cd73da79842f4a94d36d42a1da040,
        type: 3}
      propertyPath: m_LocalRotation.w
      value: 1
      objectReference: {fileID: 0}
    - target: {fileID: 5441489197459088156, guid: 254cd73da79842f4a94d36d42a1da040,
        type: 3}
      propertyPath: m_RootOrder
      value: 11
      objectReference: {fileID: 0}
    - target: {fileID: 5441489197459088156, guid: 254cd73da79842f4a94d36d42a1da040,
        type: 3}
      propertyPath: m_LocalEulerAnglesHint.x
      value: 0
      objectReference: {fileID: 0}
    - target: {fileID: 5441489197459088156, guid: 254cd73da79842f4a94d36d42a1da040,
        type: 3}
      propertyPath: m_LocalEulerAnglesHint.y
      value: 0
      objectReference: {fileID: 0}
    - target: {fileID: 5441489197459088156, guid: 254cd73da79842f4a94d36d42a1da040,
        type: 3}
      propertyPath: m_LocalEulerAnglesHint.z
      value: 0
      objectReference: {fileID: 0}
    - target: {fileID: 5441489197459088156, guid: 254cd73da79842f4a94d36d42a1da040,
        type: 3}
      propertyPath: m_AnchoredPosition.x
      value: 42.799988
      objectReference: {fileID: 0}
    - target: {fileID: 5441489197459088156, guid: 254cd73da79842f4a94d36d42a1da040,
        type: 3}
      propertyPath: m_AnchoredPosition.y
      value: -71.600006
      objectReference: {fileID: 0}
    - target: {fileID: 5441489197459088156, guid: 254cd73da79842f4a94d36d42a1da040,
        type: 3}
      propertyPath: m_SizeDelta.x
      value: 60
      objectReference: {fileID: 0}
    - target: {fileID: 5441489197459088156, guid: 254cd73da79842f4a94d36d42a1da040,
        type: 3}
      propertyPath: m_SizeDelta.y
      value: 60
      objectReference: {fileID: 0}
    - target: {fileID: 5441489197459088156, guid: 254cd73da79842f4a94d36d42a1da040,
        type: 3}
      propertyPath: m_AnchorMin.x
      value: 0
      objectReference: {fileID: 0}
    - target: {fileID: 5441489197459088156, guid: 254cd73da79842f4a94d36d42a1da040,
        type: 3}
      propertyPath: m_AnchorMin.y
      value: 1
      objectReference: {fileID: 0}
    - target: {fileID: 5441489197459088156, guid: 254cd73da79842f4a94d36d42a1da040,
        type: 3}
      propertyPath: m_AnchorMax.x
      value: 0
      objectReference: {fileID: 0}
    - target: {fileID: 5441489197459088156, guid: 254cd73da79842f4a94d36d42a1da040,
        type: 3}
      propertyPath: m_AnchorMax.y
      value: 1
      objectReference: {fileID: 0}
    - target: {fileID: 5441489197459088156, guid: 254cd73da79842f4a94d36d42a1da040,
        type: 3}
      propertyPath: m_Pivot.x
      value: 0.5
      objectReference: {fileID: 0}
    - target: {fileID: 5441489197459088156, guid: 254cd73da79842f4a94d36d42a1da040,
        type: 3}
      propertyPath: m_Pivot.y
      value: 0.5
      objectReference: {fileID: 0}
    m_RemovedComponents: []
  m_SourcePrefab: {fileID: 100100000, guid: 254cd73da79842f4a94d36d42a1da040, type: 3}
--- !u!1001 &2050704593
PrefabInstance:
  m_ObjectHideFlags: 0
  serializedVersion: 2
  m_Modification:
    m_TransformParent: {fileID: 1916489734}
    m_Modifications:
    - target: {fileID: 5441489197459088159, guid: 254cd73da79842f4a94d36d42a1da040,
        type: 3}
      propertyPath: m_Name
      value: Inventory Slot (13)
      objectReference: {fileID: 0}
    - target: {fileID: 5441489197459088156, guid: 254cd73da79842f4a94d36d42a1da040,
        type: 3}
      propertyPath: m_LocalPosition.x
      value: 0
      objectReference: {fileID: 0}
    - target: {fileID: 5441489197459088156, guid: 254cd73da79842f4a94d36d42a1da040,
        type: 3}
      propertyPath: m_LocalPosition.y
      value: 0
      objectReference: {fileID: 0}
    - target: {fileID: 5441489197459088156, guid: 254cd73da79842f4a94d36d42a1da040,
        type: 3}
      propertyPath: m_LocalPosition.z
      value: 0
      objectReference: {fileID: 0}
    - target: {fileID: 5441489197459088156, guid: 254cd73da79842f4a94d36d42a1da040,
        type: 3}
      propertyPath: m_LocalRotation.x
      value: -0
      objectReference: {fileID: 0}
    - target: {fileID: 5441489197459088156, guid: 254cd73da79842f4a94d36d42a1da040,
        type: 3}
      propertyPath: m_LocalRotation.y
      value: -0
      objectReference: {fileID: 0}
    - target: {fileID: 5441489197459088156, guid: 254cd73da79842f4a94d36d42a1da040,
        type: 3}
      propertyPath: m_LocalRotation.z
      value: -0
      objectReference: {fileID: 0}
    - target: {fileID: 5441489197459088156, guid: 254cd73da79842f4a94d36d42a1da040,
        type: 3}
      propertyPath: m_LocalRotation.w
      value: 1
      objectReference: {fileID: 0}
    - target: {fileID: 5441489197459088156, guid: 254cd73da79842f4a94d36d42a1da040,
        type: 3}
      propertyPath: m_RootOrder
      value: 15
      objectReference: {fileID: 0}
    - target: {fileID: 5441489197459088156, guid: 254cd73da79842f4a94d36d42a1da040,
        type: 3}
      propertyPath: m_LocalEulerAnglesHint.x
      value: 0
      objectReference: {fileID: 0}
    - target: {fileID: 5441489197459088156, guid: 254cd73da79842f4a94d36d42a1da040,
        type: 3}
      propertyPath: m_LocalEulerAnglesHint.y
      value: 0
      objectReference: {fileID: 0}
    - target: {fileID: 5441489197459088156, guid: 254cd73da79842f4a94d36d42a1da040,
        type: 3}
      propertyPath: m_LocalEulerAnglesHint.z
      value: 0
      objectReference: {fileID: 0}
    - target: {fileID: 5441489197459088156, guid: 254cd73da79842f4a94d36d42a1da040,
        type: 3}
      propertyPath: m_AnchoredPosition.x
      value: 427.6
      objectReference: {fileID: 0}
    - target: {fileID: 5441489197459088156, guid: 254cd73da79842f4a94d36d42a1da040,
        type: 3}
      propertyPath: m_AnchoredPosition.y
      value: -71.600006
      objectReference: {fileID: 0}
    - target: {fileID: 5441489197459088156, guid: 254cd73da79842f4a94d36d42a1da040,
        type: 3}
      propertyPath: m_SizeDelta.x
      value: 60
      objectReference: {fileID: 0}
    - target: {fileID: 5441489197459088156, guid: 254cd73da79842f4a94d36d42a1da040,
        type: 3}
      propertyPath: m_SizeDelta.y
      value: 60
      objectReference: {fileID: 0}
    - target: {fileID: 5441489197459088156, guid: 254cd73da79842f4a94d36d42a1da040,
        type: 3}
      propertyPath: m_AnchorMin.x
      value: 0
      objectReference: {fileID: 0}
    - target: {fileID: 5441489197459088156, guid: 254cd73da79842f4a94d36d42a1da040,
        type: 3}
      propertyPath: m_AnchorMin.y
      value: 1
      objectReference: {fileID: 0}
    - target: {fileID: 5441489197459088156, guid: 254cd73da79842f4a94d36d42a1da040,
        type: 3}
      propertyPath: m_AnchorMax.x
      value: 0
      objectReference: {fileID: 0}
    - target: {fileID: 5441489197459088156, guid: 254cd73da79842f4a94d36d42a1da040,
        type: 3}
      propertyPath: m_AnchorMax.y
      value: 1
      objectReference: {fileID: 0}
    - target: {fileID: 5441489197459088156, guid: 254cd73da79842f4a94d36d42a1da040,
        type: 3}
      propertyPath: m_Pivot.x
      value: 0.5
      objectReference: {fileID: 0}
    - target: {fileID: 5441489197459088156, guid: 254cd73da79842f4a94d36d42a1da040,
        type: 3}
      propertyPath: m_Pivot.y
      value: 0.5
      objectReference: {fileID: 0}
    m_RemovedComponents: []
  m_SourcePrefab: {fileID: 100100000, guid: 254cd73da79842f4a94d36d42a1da040, type: 3}
